%YAML 1.1
%TAG !u! tag:unity3d.com,2011:
--- !u!29 &1
SceneSettings:
  m_ObjectHideFlags: 0
  m_PVSData: 
  m_PVSObjectsArray: []
  m_PVSPortalsArray: []
  m_OcclusionBakeSettings:
    smallestOccluder: 5
    smallestHole: .25
    backfaceThreshold: 100
--- !u!104 &2
RenderSettings:
  m_ObjectHideFlags: 0
  serializedVersion: 6
  m_Fog: 0
  m_FogColor: {r: .5, g: .5, b: .5, a: 1}
  m_FogMode: 3
  m_FogDensity: .00999999978
  m_LinearFogStart: 0
  m_LinearFogEnd: 300
  m_AmbientSkyColor: {r: .200000003, g: .200000003, b: .200000003, a: 1}
  m_AmbientEquatorColor: {r: .200000003, g: .200000003, b: .200000003, a: 1}
  m_AmbientGroundColor: {r: .200000003, g: .200000003, b: .200000003, a: 1}
  m_AmbientIntensity: 1
  m_AmbientMode: 3
  m_SkyboxMaterial: {fileID: 0}
  m_HaloStrength: .5
  m_FlareStrength: 1
  m_FlareFadeSpeed: 3
  m_HaloTexture: {fileID: 0}
  m_SpotCookie: {fileID: 10001, guid: 0000000000000000e000000000000000, type: 0}
  m_DefaultReflectionMode: 0
  m_DefaultReflectionResolution: 128
  m_ReflectionBounces: 1
  m_ReflectionIntensity: 1
  m_CustomReflection: {fileID: 0}
  m_Sun: {fileID: 0}
--- !u!127 &3
LevelGameManager:
  m_ObjectHideFlags: 0
--- !u!157 &4
LightmapSettings:
  m_ObjectHideFlags: 0
  serializedVersion: 5
  m_GIWorkflowMode: 1
  m_LightmapsMode: 1
  m_GISettings:
    serializedVersion: 2
    m_BounceScale: 1
    m_IndirectOutputScale: 1
    m_AlbedoBoost: 1
    m_TemporalCoherenceThreshold: 1
    m_EnvironmentLightingMode: 0
    m_EnableBakedLightmaps: 1
    m_EnableRealtimeLightmaps: 0
  m_LightmapEditorSettings:
    serializedVersion: 3
    m_Resolution: 1
    m_BakeResolution: 50
    m_TextureWidth: 1024
    m_TextureHeight: 1024
    m_AOMaxDistance: 1
    m_Padding: 2
    m_CompAOExponent: 0
    m_LightmapParameters: {fileID: 0}
    m_TextureCompression: 0
    m_FinalGather: 0
    m_FinalGatherRayCount: 1024
  m_LightmapSnapshot: {fileID: 0}
  m_RuntimeCPUUsage: 25
--- !u!196 &5
NavMeshSettings:
  serializedVersion: 2
  m_ObjectHideFlags: 0
  m_BuildSettings:
    serializedVersion: 2
    agentRadius: .5
    agentHeight: 2
    agentSlope: 45
    agentClimb: .400000006
    ledgeDropHeight: 0
    maxJumpAcrossDistance: 0
    accuratePlacement: 0
    minRegionArea: 2
    cellSize: .166666657
    manualCellSize: 0
  m_NavMeshData: {fileID: 0}
--- !u!1 &25292365
GameObject:
  m_ObjectHideFlags: 0
  m_PrefabParentObject: {fileID: 100160, guid: 2ab0893f5bba9b243b65e309e78089d0, type: 3}
  m_PrefabInternal: {fileID: 587774303}
  serializedVersion: 4
  m_Component:
  - 4: {fileID: 25292366}
  m_Layer: 0
  m_Name: TongueTip
  m_TagString: Untagged
  m_Icon: {fileID: 0}
  m_NavMeshLayer: 0
  m_StaticEditorFlags: 0
  m_IsActive: 1
--- !u!4 &25292366
Transform:
  m_ObjectHideFlags: 0
  m_PrefabParentObject: {fileID: 400160, guid: 2ab0893f5bba9b243b65e309e78089d0, type: 3}
  m_PrefabInternal: {fileID: 587774303}
  m_GameObject: {fileID: 25292365}
  m_LocalRotation: {x: 0, y: 0, z: 0, w: 1}
  m_LocalPosition: {x: -0, y: -.000409444125, z: .0282272995}
  m_LocalScale: {x: 1, y: 1, z: 1}
  m_Children: []
  m_Father: {fileID: 137337015}
  m_RootOrder: 0
--- !u!1 &51004866
GameObject:
  m_ObjectHideFlags: 0
  m_PrefabParentObject: {fileID: 100078, guid: 2ab0893f5bba9b243b65e309e78089d0, type: 3}
  m_PrefabInternal: {fileID: 587774303}
  serializedVersion: 4
  m_Component:
  - 4: {fileID: 51004867}
  m_Layer: 0
  m_Name: LeftToes
  m_TagString: Untagged
  m_Icon: {fileID: 0}
  m_NavMeshLayer: 0
  m_StaticEditorFlags: 0
  m_IsActive: 1
--- !u!4 &51004867
Transform:
  m_ObjectHideFlags: 0
  m_PrefabParentObject: {fileID: 400078, guid: 2ab0893f5bba9b243b65e309e78089d0, type: 3}
  m_PrefabInternal: {fileID: 587774303}
  m_GameObject: {fileID: 51004866}
  m_LocalRotation: {x: 0, y: 0, z: 0, w: 1}
  m_LocalPosition: {x: -.00748699997, y: -.0731673017, z: .145427123}
  m_LocalScale: {x: 1, y: 1, z: 1}
  m_Children: []
  m_Father: {fileID: 1766012255}
  m_RootOrder: 0
--- !u!1 &107592440
GameObject:
  m_ObjectHideFlags: 0
  m_PrefabParentObject: {fileID: 100124, guid: 2ab0893f5bba9b243b65e309e78089d0, type: 3}
  m_PrefabInternal: {fileID: 587774303}
  serializedVersion: 4
  m_Component:
  - 4: {fileID: 107592441}
  m_Layer: 0
  m_Name: RightHandRing1
  m_TagString: Untagged
  m_Icon: {fileID: 0}
  m_NavMeshLayer: 0
  m_StaticEditorFlags: 0
  m_IsActive: 1
--- !u!4 &107592441
Transform:
  m_ObjectHideFlags: 0
  m_PrefabParentObject: {fileID: 400124, guid: 2ab0893f5bba9b243b65e309e78089d0, type: 3}
  m_PrefabInternal: {fileID: 587774303}
  m_GameObject: {fileID: 107592440}
  m_LocalRotation: {x: .000302014698, y: -.0213824511, z: .0298566706, w: .999325395}
  m_LocalPosition: {x: .0705984756, y: .00245709647, z: -.00982145779}
  m_LocalScale: {x: 1, y: 1, z: 1}
  m_Children:
  - {fileID: 1730835383}
  m_Father: {fileID: 1741271325}
  m_RootOrder: 3
--- !u!1 &125677791
GameObject:
  m_ObjectHideFlags: 0
  m_PrefabParentObject: {fileID: 100050, guid: 2ab0893f5bba9b243b65e309e78089d0, type: 3}
  m_PrefabInternal: {fileID: 587774303}
  serializedVersion: 4
  m_Component:
  - 4: {fileID: 125677792}
  m_Layer: 0
  m_Name: LeftHandRing1
  m_TagString: Untagged
  m_Icon: {fileID: 0}
  m_NavMeshLayer: 0
  m_StaticEditorFlags: 0
  m_IsActive: 1
--- !u!4 &125677792
Transform:
  m_ObjectHideFlags: 0
  m_PrefabParentObject: {fileID: 400050, guid: 2ab0893f5bba9b243b65e309e78089d0, type: 3}
  m_PrefabInternal: {fileID: 587774303}
  m_GameObject: {fileID: 125677791}
  m_LocalRotation: {x: .000302014698, y: -.0213824511, z: .0298566706, w: .999325395}
  m_LocalPosition: {x: -.0703021064, y: -.00374530931, z: -.0114117917}
  m_LocalScale: {x: 1, y: 1, z: 1}
  m_Children:
  - {fileID: 239416497}
  m_Father: {fileID: 2101262864}
  m_RootOrder: 3
--- !u!1 &129267890
GameObject:
  m_ObjectHideFlags: 0
  m_PrefabParentObject: {fileID: 100008, guid: 2ab0893f5bba9b243b65e309e78089d0, type: 3}
  m_PrefabInternal: {fileID: 587774303}
  serializedVersion: 4
  m_Component:
  - 4: {fileID: 129267891}
  m_Layer: 0
  m_Name: Hips
  m_TagString: Untagged
  m_Icon: {fileID: 0}
  m_NavMeshLayer: 0
  m_StaticEditorFlags: 0
  m_IsActive: 1
--- !u!4 &129267891
Transform:
  m_ObjectHideFlags: 0
  m_PrefabParentObject: {fileID: 400008, guid: 2ab0893f5bba9b243b65e309e78089d0, type: 3}
  m_PrefabInternal: {fileID: 587774303}
  m_GameObject: {fileID: 129267890}
  m_LocalRotation: {x: 0, y: 0, z: 0, w: 1}
  m_LocalPosition: {x: -0, y: .963793993, z: -.0235067774}
  m_LocalScale: {x: 1, y: 1, z: 1}
  m_Children:
  - {fileID: 1671330501}
  - {fileID: 1906499969}
  - {fileID: 799151194}
  m_Father: {fileID: 1746087025}
  m_RootOrder: 0
--- !u!1 &137337014
GameObject:
  m_ObjectHideFlags: 0
  m_PrefabParentObject: {fileID: 100158, guid: 2ab0893f5bba9b243b65e309e78089d0, type: 3}
  m_PrefabInternal: {fileID: 587774303}
  serializedVersion: 4
  m_Component:
  - 4: {fileID: 137337015}
  m_Layer: 0
  m_Name: TongueBack
  m_TagString: Untagged
  m_Icon: {fileID: 0}
  m_NavMeshLayer: 0
  m_StaticEditorFlags: 0
  m_IsActive: 1
--- !u!4 &137337015
Transform:
  m_ObjectHideFlags: 0
  m_PrefabParentObject: {fileID: 400158, guid: 2ab0893f5bba9b243b65e309e78089d0, type: 3}
  m_PrefabInternal: {fileID: 587774303}
  m_GameObject: {fileID: 137337014}
  m_LocalRotation: {x: 0, y: 0, z: 0, w: 1}
  m_LocalPosition: {x: -0, y: -.022869369, z: .0100954091}
  m_LocalScale: {x: 1, y: 1, z: 1}
  m_Children:
  - {fileID: 25292366}
  m_Father: {fileID: 753026299}
  m_RootOrder: 5
--- !u!1 &195787589
GameObject:
  m_ObjectHideFlags: 0
  m_PrefabParentObject: {fileID: 100018, guid: 2ab0893f5bba9b243b65e309e78089d0, type: 3}
  m_PrefabInternal: {fileID: 587774303}
  serializedVersion: 4
  m_Component:
  - 4: {fileID: 195787590}
  m_Layer: 0
  m_Name: LeftCheek
  m_TagString: Untagged
  m_Icon: {fileID: 0}
  m_NavMeshLayer: 0
  m_StaticEditorFlags: 0
  m_IsActive: 1
--- !u!4 &195787590
Transform:
  m_ObjectHideFlags: 0
  m_PrefabParentObject: {fileID: 400018, guid: 2ab0893f5bba9b243b65e309e78089d0, type: 3}
  m_PrefabInternal: {fileID: 587774303}
  m_GameObject: {fileID: 195787589}
  m_LocalRotation: {x: 0, y: 0, z: 0, w: 1}
  m_LocalPosition: {x: -.0542440265, y: .0337019488, z: .0594304018}
  m_LocalScale: {x: 1, y: 1, z: 1}
  m_Children: []
  m_Father: {fileID: 1887843162}
  m_RootOrder: 1
--- !u!1 &239416496
GameObject:
  m_ObjectHideFlags: 0
  m_PrefabParentObject: {fileID: 100052, guid: 2ab0893f5bba9b243b65e309e78089d0, type: 3}
  m_PrefabInternal: {fileID: 587774303}
  serializedVersion: 4
  m_Component:
  - 4: {fileID: 239416497}
  m_Layer: 0
  m_Name: LeftHandRing2
  m_TagString: Untagged
  m_Icon: {fileID: 0}
  m_NavMeshLayer: 0
  m_StaticEditorFlags: 0
  m_IsActive: 1
--- !u!4 &239416497
Transform:
  m_ObjectHideFlags: 0
  m_PrefabParentObject: {fileID: 400052, guid: 2ab0893f5bba9b243b65e309e78089d0, type: 3}
  m_PrefabInternal: {fileID: 587774303}
  m_GameObject: {fileID: 239416496}
  m_LocalRotation: {x: -.00157919095, y: -.0221169833, z: .0554940253, w: .998212814}
  m_LocalPosition: {x: -.0431354567, y: -2.08823076e-05, z: -.00223517837}
  m_LocalScale: {x: 1, y: 1, z: 1}
  m_Children:
  - {fileID: 1813436251}
  m_Father: {fileID: 125677792}
  m_RootOrder: 0
--- !u!1 &246053784
GameObject:
  m_ObjectHideFlags: 0
  m_PrefabParentObject: {fileID: 100122, guid: 2ab0893f5bba9b243b65e309e78089d0, type: 3}
  m_PrefabInternal: {fileID: 587774303}
  serializedVersion: 4
  m_Component:
  - 4: {fileID: 246053785}
  m_Layer: 0
  m_Name: RightHandPinky3
  m_TagString: Untagged
  m_Icon: {fileID: 0}
  m_NavMeshLayer: 0
  m_StaticEditorFlags: 0
  m_IsActive: 1
--- !u!4 &246053785
Transform:
  m_ObjectHideFlags: 0
  m_PrefabParentObject: {fileID: 400122, guid: 2ab0893f5bba9b243b65e309e78089d0, type: 3}
  m_PrefabInternal: {fileID: 587774303}
  m_GameObject: {fileID: 246053784}
  m_LocalRotation: {x: 0, y: 0, z: 0, w: 1}
  m_LocalPosition: {x: .0214268602, y: -.000553508929, z: -.00851660781}
  m_LocalScale: {x: 1, y: 1, z: 1}
  m_Children: []
  m_Father: {fileID: 1266925696}
  m_RootOrder: 0
--- !u!1 &268434207
GameObject:
  m_ObjectHideFlags: 0
  m_PrefabParentObject: {fileID: 100144, guid: 2ab0893f5bba9b243b65e309e78089d0, type: 3}
  m_PrefabInternal: {fileID: 587774303}
  serializedVersion: 4
  m_Component:
  - 4: {fileID: 268434208}
  m_Layer: 0
  m_Name: RightLipLower
  m_TagString: Untagged
  m_Icon: {fileID: 0}
  m_NavMeshLayer: 0
  m_StaticEditorFlags: 0
  m_IsActive: 1
--- !u!4 &268434208
Transform:
  m_ObjectHideFlags: 0
  m_PrefabParentObject: {fileID: 400144, guid: 2ab0893f5bba9b243b65e309e78089d0, type: 3}
  m_PrefabInternal: {fileID: 587774303}
  m_GameObject: {fileID: 268434207}
  m_LocalRotation: {x: 0, y: 0, z: 0, w: 1}
  m_LocalPosition: {x: .0142508168, y: -.0216887593, z: .0822387859}
  m_LocalScale: {x: 1, y: 1, z: 1}
  m_Children: []
  m_Father: {fileID: 753026299}
  m_RootOrder: 4
--- !u!1 &272666202
GameObject:
  m_ObjectHideFlags: 0
  m_PrefabParentObject: {fileID: 100014, guid: 2ab0893f5bba9b243b65e309e78089d0, type: 3}
  m_PrefabInternal: {fileID: 587774303}
  serializedVersion: 4
  m_Component:
  - 4: {fileID: 272666203}
  - 33: {fileID: 272666205}
  - 23: {fileID: 272666204}
  m_Layer: 0
  m_Name: Le_Eye_Mesh
  m_TagString: Untagged
  m_Icon: {fileID: 0}
  m_NavMeshLayer: 0
  m_StaticEditorFlags: 0
  m_IsActive: 1
--- !u!4 &272666203
Transform:
  m_ObjectHideFlags: 0
  m_PrefabParentObject: {fileID: 400014, guid: 2ab0893f5bba9b243b65e309e78089d0, type: 3}
  m_PrefabInternal: {fileID: 587774303}
  m_GameObject: {fileID: 272666202}
  m_LocalRotation: {x: 0, y: 0, z: 0, w: 1}
  m_LocalPosition: {x: -.00168411608, y: .000405807485, z: .00531818997}
  m_LocalScale: {x: 1, y: 1, z: 1}
  m_Children: []
  m_Father: {fileID: 2096083065}
  m_RootOrder: 0
--- !u!23 &272666204
MeshRenderer:
  m_ObjectHideFlags: 0
  m_PrefabParentObject: {fileID: 2300000, guid: 2ab0893f5bba9b243b65e309e78089d0,
    type: 3}
  m_PrefabInternal: {fileID: 587774303}
  m_GameObject: {fileID: 272666202}
  m_Enabled: 1
  m_CastShadows: 1
  m_ReceiveShadows: 1
  m_Materials:
  - {fileID: 2100000, guid: e4a12fd3405832f448a43cdddb4a4e87, type: 2}
  m_SubsetIndices: 
  m_StaticBatchRoot: {fileID: 0}
  m_UseLightProbes: 1
  m_ReflectionProbeUsage: 1
  m_ProbeAnchor: {fileID: 0}
  m_ScaleInLightmap: 1
  m_PreserveUVs: 0
  m_ImportantGI: 0
  m_AutoUVMaxDistance: .5
  m_AutoUVMaxAngle: 89
  m_LightmapParameters: {fileID: 0}
  m_SortingLayerID: 0
  m_SortingOrder: 0
--- !u!33 &272666205
MeshFilter:
  m_ObjectHideFlags: 0
  m_PrefabParentObject: {fileID: 3300000, guid: 2ab0893f5bba9b243b65e309e78089d0,
    type: 3}
  m_PrefabInternal: {fileID: 587774303}
  m_GameObject: {fileID: 272666202}
  m_Mesh: {fileID: 4300000, guid: 2ab0893f5bba9b243b65e309e78089d0, type: 3}
--- !u!1 &277752022
GameObject:
  m_ObjectHideFlags: 0
  m_PrefabParentObject: {fileID: 100070, guid: 2ab0893f5bba9b243b65e309e78089d0, type: 3}
  m_PrefabInternal: {fileID: 587774303}
  serializedVersion: 4
  m_Component:
  - 4: {fileID: 277752023}
  m_Layer: 0
  m_Name: LeftLipLower
  m_TagString: Untagged
  m_Icon: {fileID: 0}
  m_NavMeshLayer: 0
  m_StaticEditorFlags: 0
  m_IsActive: 1
--- !u!4 &277752023
Transform:
  m_ObjectHideFlags: 0
  m_PrefabParentObject: {fileID: 400070, guid: 2ab0893f5bba9b243b65e309e78089d0, type: 3}
  m_PrefabInternal: {fileID: 587774303}
  m_GameObject: {fileID: 277752022}
  m_LocalRotation: {x: 0, y: 0, z: 0, w: 1}
  m_LocalPosition: {x: -.0142508168, y: -.0216887593, z: .0822406337}
  m_LocalScale: {x: 1, y: 1, z: 1}
  m_Children: []
  m_Father: {fileID: 753026299}
  m_RootOrder: 2
--- !u!1 &288424767
GameObject:
  m_ObjectHideFlags: 0
  m_PrefabParentObject: {fileID: 100098, guid: 2ab0893f5bba9b243b65e309e78089d0, type: 3}
  m_PrefabInternal: {fileID: 587774303}
  serializedVersion: 4
  m_Component:
  - 4: {fileID: 288424768}
  m_Layer: 0
  m_Name: RightEyelidUpper
  m_TagString: Untagged
  m_Icon: {fileID: 0}
  m_NavMeshLayer: 0
  m_StaticEditorFlags: 0
  m_IsActive: 1
--- !u!4 &288424768
Transform:
  m_ObjectHideFlags: 0
  m_PrefabParentObject: {fileID: 400098, guid: 2ab0893f5bba9b243b65e309e78089d0, type: 3}
  m_PrefabInternal: {fileID: 587774303}
  m_GameObject: {fileID: 288424767}
  m_LocalRotation: {x: 0, y: 0, z: 0, w: 1}
  m_LocalPosition: {x: .0344099998, y: .100612827, z: .0802073926}
  m_LocalScale: {x: 1, y: 1, z: 1}
  m_Children: []
  m_Father: {fileID: 1887843162}
  m_RootOrder: 12
--- !u!1 &315447353
GameObject:
  m_ObjectHideFlags: 0
  m_PrefabParentObject: {fileID: 100084, guid: 2ab0893f5bba9b243b65e309e78089d0, type: 3}
  m_PrefabInternal: {fileID: 587774303}
  serializedVersion: 4
  m_Component:
  - 4: {fileID: 315447354}
  m_Layer: 0
  m_Name: Neck
  m_TagString: Untagged
  m_Icon: {fileID: 0}
  m_NavMeshLayer: 0
  m_StaticEditorFlags: 0
  m_IsActive: 1
--- !u!4 &315447354
Transform:
  m_ObjectHideFlags: 0
  m_PrefabParentObject: {fileID: 400084, guid: 2ab0893f5bba9b243b65e309e78089d0, type: 3}
  m_PrefabInternal: {fileID: 587774303}
  m_GameObject: {fileID: 315447353}
  m_LocalRotation: {x: 0, y: 0, z: 0, w: 1}
  m_LocalPosition: {x: -0, y: .235723898, z: -.0324132554}
  m_LocalScale: {x: 1, y: 1, z: 1}
  m_Children:
  - {fileID: 1887843162}
  m_Father: {fileID: 1424801227}
  m_RootOrder: 1
--- !u!1 &325846139
GameObject:
  m_ObjectHideFlags: 0
  m_PrefabParentObject: {fileID: 100092, guid: 2ab0893f5bba9b243b65e309e78089d0, type: 3}
  m_PrefabInternal: {fileID: 587774303}
  serializedVersion: 4
  m_Component:
  - 4: {fileID: 325846140}
  m_Layer: 0
  m_Name: RightCheek
  m_TagString: Untagged
  m_Icon: {fileID: 0}
  m_NavMeshLayer: 0
  m_StaticEditorFlags: 0
  m_IsActive: 1
--- !u!4 &325846140
Transform:
  m_ObjectHideFlags: 0
  m_PrefabParentObject: {fileID: 400092, guid: 2ab0893f5bba9b243b65e309e78089d0, type: 3}
  m_PrefabInternal: {fileID: 587774303}
  m_GameObject: {fileID: 325846139}
  m_LocalRotation: {x: 0, y: 0, z: 0, w: 1}
  m_LocalPosition: {x: .0542399958, y: .033702828, z: .0594273992}
  m_LocalScale: {x: 1, y: 1, z: 1}
  m_Children: []
  m_Father: {fileID: 1887843162}
  m_RootOrder: 9
--- !u!1 &327636015
GameObject:
  m_ObjectHideFlags: 0
  m_PrefabParentObject: {fileID: 100074, guid: 2ab0893f5bba9b243b65e309e78089d0, type: 3}
  m_PrefabInternal: {fileID: 587774303}
  serializedVersion: 4
  m_Component:
  - 4: {fileID: 327636016}
  m_Layer: 0
  m_Name: LeftNostril
  m_TagString: Untagged
  m_Icon: {fileID: 0}
  m_NavMeshLayer: 0
  m_StaticEditorFlags: 0
  m_IsActive: 1
--- !u!4 &327636016
Transform:
  m_ObjectHideFlags: 0
  m_PrefabParentObject: {fileID: 400074, guid: 2ab0893f5bba9b243b65e309e78089d0, type: 3}
  m_PrefabInternal: {fileID: 587774303}
  m_GameObject: {fileID: 327636015}
  m_LocalRotation: {x: 0, y: 0, z: 0, w: 1}
  m_LocalPosition: {x: -.0178999994, y: .0263128281, z: .0908674002}
  m_LocalScale: {x: 1, y: 1, z: 1}
  m_Children: []
  m_Father: {fileID: 1887843162}
  m_RootOrder: 8
--- !u!1 &354910445
GameObject:
  m_ObjectHideFlags: 0
  m_PrefabParentObject: {fileID: 100116, guid: 2ab0893f5bba9b243b65e309e78089d0, type: 3}
  m_PrefabInternal: {fileID: 587774303}
  serializedVersion: 4
  m_Component:
  - 4: {fileID: 354910446}
  m_Layer: 0
  m_Name: RightHandMiddle3
  m_TagString: Untagged
  m_Icon: {fileID: 0}
  m_NavMeshLayer: 0
  m_StaticEditorFlags: 0
  m_IsActive: 1
--- !u!4 &354910446
Transform:
  m_ObjectHideFlags: 0
  m_PrefabParentObject: {fileID: 400116, guid: 2ab0893f5bba9b243b65e309e78089d0, type: 3}
  m_PrefabInternal: {fileID: 587774303}
  m_GameObject: {fileID: 354910445}
  m_LocalRotation: {x: 0, y: 0, z: 0, w: 1}
  m_LocalPosition: {x: .0330724716, y: -.00754753686, z: .00168984616}
  m_LocalScale: {x: 1, y: 1, z: 1}
  m_Children: []
  m_Father: {fileID: 1526258572}
  m_RootOrder: 0
--- !u!1 &373842233
GameObject:
  m_ObjectHideFlags: 0
  m_PrefabParentObject: {fileID: 100162, guid: 2ab0893f5bba9b243b65e309e78089d0, type: 3}
  m_PrefabInternal: {fileID: 587774303}
  serializedVersion: 4
  m_Component:
  - 4: {fileID: 373842234}
  - 137: {fileID: 373842235}
  m_Layer: 0
  m_Name: Tounge_Mesh
  m_TagString: Untagged
  m_Icon: {fileID: 0}
  m_NavMeshLayer: 0
  m_StaticEditorFlags: 0
  m_IsActive: 1
--- !u!4 &373842234
Transform:
  m_ObjectHideFlags: 0
  m_PrefabParentObject: {fileID: 400162, guid: 2ab0893f5bba9b243b65e309e78089d0, type: 3}
  m_PrefabInternal: {fileID: 587774303}
  m_GameObject: {fileID: 373842233}
  m_LocalRotation: {x: 0, y: 0, z: 0, w: 1}
  m_LocalPosition: {x: 0, y: 0, z: 0}
  m_LocalScale: {x: 1, y: 1, z: 1}
  m_Children: []
  m_Father: {fileID: 1367915533}
  m_RootOrder: 1
--- !u!137 &373842235
SkinnedMeshRenderer:
  m_ObjectHideFlags: 0
  m_PrefabParentObject: {fileID: 13700002, guid: 2ab0893f5bba9b243b65e309e78089d0,
    type: 3}
  m_PrefabInternal: {fileID: 587774303}
  m_GameObject: {fileID: 373842233}
  m_Enabled: 1
  m_CastShadows: 1
  m_ReceiveShadows: 1
  m_Materials:
  - {fileID: 2100000, guid: e4a12fd3405832f448a43cdddb4a4e87, type: 2}
  m_SubsetIndices: 
  m_StaticBatchRoot: {fileID: 0}
  m_UseLightProbes: 1
  m_ReflectionProbeUsage: 1
  m_ProbeAnchor: {fileID: 0}
  m_ScaleInLightmap: 1
  m_PreserveUVs: 0
  m_ImportantGI: 0
  m_AutoUVMaxDistance: .5
  m_AutoUVMaxAngle: 89
  m_LightmapParameters: {fileID: 0}
  m_SortingLayerID: 0
  m_SortingOrder: 0
  serializedVersion: 2
  m_Quality: 0
  m_UpdateWhenOffscreen: 0
  m_Mesh: {fileID: 4300010, guid: 2ab0893f5bba9b243b65e309e78089d0, type: 3}
  m_Bones:
  - {fileID: 137337015}
  - {fileID: 25292366}
  m_BlendShapeWeights: []
  m_RootBone: {fileID: 137337015}
  m_AABB:
    m_Center: {x: -5.58793545e-08, y: .00148701668, z: .0305328891}
    m_Extent: {x: .027372513, y: .00973463058, z: .031023398}
  m_DirtyAABB: 0
--- !u!1 &385157605
GameObject:
  m_ObjectHideFlags: 0
  m_PrefabParentObject: {fileID: 100034, guid: 2ab0893f5bba9b243b65e309e78089d0, type: 3}
  m_PrefabInternal: {fileID: 587774303}
  serializedVersion: 4
  m_Component:
  - 4: {fileID: 385157606}
  m_Layer: 0
  m_Name: LeftHandIndex2
  m_TagString: Untagged
  m_Icon: {fileID: 0}
  m_NavMeshLayer: 0
  m_StaticEditorFlags: 0
  m_IsActive: 1
--- !u!4 &385157606
Transform:
  m_ObjectHideFlags: 0
  m_PrefabParentObject: {fileID: 400034, guid: 2ab0893f5bba9b243b65e309e78089d0, type: 3}
  m_PrefabInternal: {fileID: 587774303}
  m_GameObject: {fileID: 385157605}
  m_LocalRotation: {x: .000658526376, y: .0156148067, z: .0509195141, w: .998580456}
  m_LocalPosition: {x: -.03979728, y: 4.98084046e-05, z: .00118575036}
  m_LocalScale: {x: 1, y: 1, z: 1}
  m_Children:
  - {fileID: 1592215011}
  m_Father: {fileID: 571261090}
  m_RootOrder: 0
--- !u!1 &458739644
GameObject:
  m_ObjectHideFlags: 0
  m_PrefabParentObject: {fileID: 100132, guid: 2ab0893f5bba9b243b65e309e78089d0, type: 3}
  m_PrefabInternal: {fileID: 587774303}
  serializedVersion: 4
  m_Component:
  - 4: {fileID: 458739645}
  m_Layer: 0
  m_Name: RightHandThumb2
  m_TagString: Untagged
  m_Icon: {fileID: 0}
  m_NavMeshLayer: 0
  m_StaticEditorFlags: 0
  m_IsActive: 1
--- !u!4 &458739645
Transform:
  m_ObjectHideFlags: 0
  m_PrefabParentObject: {fileID: 400132, guid: 2ab0893f5bba9b243b65e309e78089d0, type: 3}
  m_PrefabInternal: {fileID: 587774303}
  m_GameObject: {fileID: 458739644}
  m_LocalRotation: {x: 0, y: 0, z: 0, w: 1}
  m_LocalPosition: {x: .0163739994, y: -.00528999977, z: .0234913602}
  m_LocalScale: {x: 1, y: 1, z: 1}
  m_Children:
  - {fileID: 801788024}
  m_Father: {fileID: 1500758059}
  m_RootOrder: 0
--- !u!1 &480575302
GameObject:
  m_ObjectHideFlags: 0
  m_PrefabParentObject: {fileID: 100038, guid: 2ab0893f5bba9b243b65e309e78089d0, type: 3}
  m_PrefabInternal: {fileID: 587774303}
  serializedVersion: 4
  m_Component:
  - 4: {fileID: 480575303}
  m_Layer: 0
  m_Name: LeftHandMiddle1
  m_TagString: Untagged
  m_Icon: {fileID: 0}
  m_NavMeshLayer: 0
  m_StaticEditorFlags: 0
  m_IsActive: 1
--- !u!4 &480575303
Transform:
  m_ObjectHideFlags: 0
  m_PrefabParentObject: {fileID: 400038, guid: 2ab0893f5bba9b243b65e309e78089d0, type: 3}
  m_PrefabInternal: {fileID: 587774303}
  m_GameObject: {fileID: 480575302}
  m_LocalRotation: {x: -.000768873375, y: .0333210826, z: .020907538, w: .999225736}
  m_LocalPosition: {x: -.0760238245, y: -.00188513438, z: .0101412293}
  m_LocalScale: {x: 1, y: 1, z: 1}
  m_Children:
  - {fileID: 743527842}
  m_Father: {fileID: 2101262864}
  m_RootOrder: 1
--- !u!1 &483601763
GameObject:
  m_ObjectHideFlags: 0
  m_PrefabParentObject: {fileID: 100148, guid: 2ab0893f5bba9b243b65e309e78089d0, type: 3}
  m_PrefabInternal: {fileID: 587774303}
  serializedVersion: 4
  m_Component:
  - 4: {fileID: 483601764}
  m_Layer: 0
  m_Name: RightNostril
  m_TagString: Untagged
  m_Icon: {fileID: 0}
  m_NavMeshLayer: 0
  m_StaticEditorFlags: 0
  m_IsActive: 1
--- !u!4 &483601764
Transform:
  m_ObjectHideFlags: 0
  m_PrefabParentObject: {fileID: 400148, guid: 2ab0893f5bba9b243b65e309e78089d0, type: 3}
  m_PrefabInternal: {fileID: 587774303}
  m_GameObject: {fileID: 483601763}
  m_LocalRotation: {x: 0, y: 0, z: 0, w: 1}
  m_LocalPosition: {x: .0178999994, y: .0263089053, z: .0908706188}
  m_LocalScale: {x: 1, y: 1, z: 1}
  m_Children: []
  m_Father: {fileID: 1887843162}
  m_RootOrder: 16
--- !u!1 &511612875
GameObject:
  m_ObjectHideFlags: 0
  m_PrefabParentObject: {fileID: 100024, guid: 2ab0893f5bba9b243b65e309e78089d0, type: 3}
  m_PrefabInternal: {fileID: 587774303}
  serializedVersion: 4
  m_Component:
  - 4: {fileID: 511612876}
  m_Layer: 0
  m_Name: LeftEyelidUpper
  m_TagString: Untagged
  m_Icon: {fileID: 0}
  m_NavMeshLayer: 0
  m_StaticEditorFlags: 0
  m_IsActive: 1
--- !u!4 &511612876
Transform:
  m_ObjectHideFlags: 0
  m_PrefabParentObject: {fileID: 400024, guid: 2ab0893f5bba9b243b65e309e78089d0, type: 3}
  m_PrefabInternal: {fileID: 587774303}
  m_GameObject: {fileID: 511612875}
  m_LocalRotation: {x: 0, y: 0, z: 0, w: 1}
  m_LocalPosition: {x: -.0344068967, y: .10060814, z: .0802053064}
  m_LocalScale: {x: 1, y: 1, z: 1}
  m_Children: []
  m_Father: {fileID: 1887843162}
  m_RootOrder: 4
--- !u!1 &516177466
GameObject:
  m_ObjectHideFlags: 0
  m_PrefabParentObject: {fileID: 100118, guid: 2ab0893f5bba9b243b65e309e78089d0, type: 3}
  m_PrefabInternal: {fileID: 587774303}
  serializedVersion: 4
  m_Component:
  - 4: {fileID: 516177467}
  m_Layer: 0
  m_Name: RightHandPinky1
  m_TagString: Untagged
  m_Icon: {fileID: 0}
  m_NavMeshLayer: 0
  m_StaticEditorFlags: 0
  m_IsActive: 1
--- !u!4 &516177467
Transform:
  m_ObjectHideFlags: 0
  m_PrefabParentObject: {fileID: 400118, guid: 2ab0893f5bba9b243b65e309e78089d0, type: 3}
  m_PrefabInternal: {fileID: 587774303}
  m_GameObject: {fileID: 516177466}
  m_LocalRotation: {x: .000947935798, y: -.0904072002, z: .0333630852, w: .995345473}
  m_LocalPosition: {x: .0668033436, y: -.00199410878, z: -.0307561457}
  m_LocalScale: {x: 1, y: 1, z: 1}
  m_Children:
  - {fileID: 1266925696}
  m_Father: {fileID: 1741271325}
  m_RootOrder: 2
--- !u!1 &522869119
GameObject:
  m_ObjectHideFlags: 0
  m_PrefabParentObject: {fileID: 100100, guid: 2ab0893f5bba9b243b65e309e78089d0, type: 3}
  m_PrefabInternal: {fileID: 587774303}
  serializedVersion: 4
  m_Component:
  - 4: {fileID: 522869120}
  m_Layer: 0
  m_Name: RightFoot
  m_TagString: Untagged
  m_Icon: {fileID: 0}
  m_NavMeshLayer: 0
  m_StaticEditorFlags: 0
  m_IsActive: 1
--- !u!4 &522869120
Transform:
  m_ObjectHideFlags: 0
  m_PrefabParentObject: {fileID: 400100, guid: 2ab0893f5bba9b243b65e309e78089d0, type: 3}
  m_PrefabInternal: {fileID: 587774303}
  m_GameObject: {fileID: 522869119}
  m_LocalRotation: {x: 0, y: 0, z: 0, w: 1}
  m_LocalPosition: {x: .00515299942, y: -.423155904, z: -.0120320888}
  m_LocalScale: {x: 1, y: 1, z: 1}
  m_Children:
  - {fileID: 983597349}
  m_Father: {fileID: 1625540091}
  m_RootOrder: 0
--- !u!1 &559612482
GameObject:
  m_ObjectHideFlags: 0
  m_PrefabParentObject: {fileID: 100166, guid: 2ab0893f5bba9b243b65e309e78089d0, type: 3}
  m_PrefabInternal: {fileID: 587774303}
  serializedVersion: 4
  m_Component:
  - 4: {fileID: 559612483}
  - 137: {fileID: 559612484}
  m_Layer: 0
  m_Name: Up_Teeth_Mesh
  m_TagString: Untagged
  m_Icon: {fileID: 0}
  m_NavMeshLayer: 0
  m_StaticEditorFlags: 0
  m_IsActive: 1
--- !u!4 &559612483
Transform:
  m_ObjectHideFlags: 0
  m_PrefabParentObject: {fileID: 400166, guid: 2ab0893f5bba9b243b65e309e78089d0, type: 3}
  m_PrefabInternal: {fileID: 587774303}
  m_GameObject: {fileID: 559612482}
  m_LocalRotation: {x: 0, y: 0, z: 0, w: 1}
  m_LocalPosition: {x: 0, y: 0, z: 0}
  m_LocalScale: {x: 1, y: 1, z: 1}
  m_Children: []
  m_Father: {fileID: 1367915533}
  m_RootOrder: 3
--- !u!137 &559612484
SkinnedMeshRenderer:
  m_ObjectHideFlags: 0
  m_PrefabParentObject: {fileID: 13700006, guid: 2ab0893f5bba9b243b65e309e78089d0,
    type: 3}
  m_PrefabInternal: {fileID: 587774303}
  m_GameObject: {fileID: 559612482}
  m_Enabled: 1
  m_CastShadows: 1
  m_ReceiveShadows: 1
  m_Materials:
  - {fileID: 2100000, guid: e4a12fd3405832f448a43cdddb4a4e87, type: 2}
  m_SubsetIndices: 
  m_StaticBatchRoot: {fileID: 0}
  m_UseLightProbes: 1
  m_ReflectionProbeUsage: 1
  m_ProbeAnchor: {fileID: 0}
  m_ScaleInLightmap: 1
  m_PreserveUVs: 0
  m_ImportantGI: 0
  m_AutoUVMaxDistance: .5
  m_AutoUVMaxAngle: 89
  m_LightmapParameters: {fileID: 0}
  m_SortingLayerID: 0
  m_SortingOrder: 0
  serializedVersion: 2
  m_Quality: 0
  m_UpdateWhenOffscreen: 0
  m_Mesh: {fileID: 4300006, guid: 2ab0893f5bba9b243b65e309e78089d0, type: 3}
  m_Bones:
  - {fileID: 1887843162}
  m_BlendShapeWeights: []
  m_RootBone: {fileID: 1887843162}
  m_AABB:
    m_Center: {x: 0, y: -.00179219246, z: .0587870702}
    m_Extent: {x: .035529051, y: .00823318958, z: .024382636}
  m_DirtyAABB: 0
--- !u!1 &571261089
GameObject:
  m_ObjectHideFlags: 0
  m_PrefabParentObject: {fileID: 100032, guid: 2ab0893f5bba9b243b65e309e78089d0, type: 3}
  m_PrefabInternal: {fileID: 587774303}
  serializedVersion: 4
  m_Component:
  - 4: {fileID: 571261090}
  m_Layer: 0
  m_Name: LeftHandIndex1
  m_TagString: Untagged
  m_Icon: {fileID: 0}
  m_NavMeshLayer: 0
  m_StaticEditorFlags: 0
  m_IsActive: 1
--- !u!4 &571261090
Transform:
  m_ObjectHideFlags: 0
  m_PrefabParentObject: {fileID: 400032, guid: 2ab0893f5bba9b243b65e309e78089d0, type: 3}
  m_PrefabInternal: {fileID: 587774303}
  m_GameObject: {fileID: 571261089}
  m_LocalRotation: {x: -.00211892044, y: .0802574381, z: .0175381862, w: .996617615}
  m_LocalPosition: {x: -.0751257986, y: -.00784140453, z: .0326526426}
  m_LocalScale: {x: 1, y: 1, z: 1}
  m_Children:
  - {fileID: 385157606}
  m_Father: {fileID: 2101262864}
  m_RootOrder: 0
--- !u!1001 &587774303
Prefab:
  m_ObjectHideFlags: 0
  serializedVersion: 2
  m_Modification:
    m_TransformParent: {fileID: 0}
    m_Modifications:
    - target: {fileID: 400002, guid: 2ab0893f5bba9b243b65e309e78089d0, type: 3}
      propertyPath: m_LocalPosition.x
      value: 1.28393173
      objectReference: {fileID: 0}
    - target: {fileID: 400002, guid: 2ab0893f5bba9b243b65e309e78089d0, type: 3}
      propertyPath: m_LocalPosition.y
      value: 3.35829306
      objectReference: {fileID: 0}
    - target: {fileID: 400002, guid: 2ab0893f5bba9b243b65e309e78089d0, type: 3}
      propertyPath: m_LocalPosition.z
      value: 2.09931755
      objectReference: {fileID: 0}
    - target: {fileID: 400002, guid: 2ab0893f5bba9b243b65e309e78089d0, type: 3}
      propertyPath: m_LocalRotation.x
      value: 0
      objectReference: {fileID: 0}
    - target: {fileID: 400002, guid: 2ab0893f5bba9b243b65e309e78089d0, type: 3}
      propertyPath: m_LocalRotation.y
      value: 0
      objectReference: {fileID: 0}
    - target: {fileID: 400002, guid: 2ab0893f5bba9b243b65e309e78089d0, type: 3}
      propertyPath: m_LocalRotation.z
      value: 0
      objectReference: {fileID: 0}
    - target: {fileID: 400002, guid: 2ab0893f5bba9b243b65e309e78089d0, type: 3}
      propertyPath: m_LocalRotation.w
      value: 1
      objectReference: {fileID: 0}
    - target: {fileID: 9500000, guid: 2ab0893f5bba9b243b65e309e78089d0, type: 3}
      propertyPath: m_Controller
      value: 
      objectReference: {fileID: 9100000, guid: 1674f0cd8ce7e6f44a3c9f7b09ac4c23, type: 2}
    - target: {fileID: 9500000, guid: 2ab0893f5bba9b243b65e309e78089d0, type: 3}
      propertyPath: m_ApplyRootMotion
      value: 0
      objectReference: {fileID: 0}
    m_RemovedComponents: []
  m_ParentPrefab: {fileID: 100100000, guid: 2ab0893f5bba9b243b65e309e78089d0, type: 3}
  m_RootGameObject: {fileID: 1411765132}
  m_IsPrefabParent: 0
--- !u!1 &682127008
GameObject:
  m_ObjectHideFlags: 0
  m_PrefabParentObject: {fileID: 100138, guid: 2ab0893f5bba9b243b65e309e78089d0, type: 3}
  m_PrefabInternal: {fileID: 587774303}
  serializedVersion: 4
  m_Component:
  - 4: {fileID: 682127009}
  m_Layer: 0
  m_Name: RightIOuterBrow
  m_TagString: Untagged
  m_Icon: {fileID: 0}
  m_NavMeshLayer: 0
  m_StaticEditorFlags: 0
  m_IsActive: 1
--- !u!4 &682127009
Transform:
  m_ObjectHideFlags: 0
  m_PrefabParentObject: {fileID: 400138, guid: 2ab0893f5bba9b243b65e309e78089d0, type: 3}
  m_PrefabInternal: {fileID: 587774303}
  m_GameObject: {fileID: 682127008}
  m_LocalRotation: {x: 0, y: 0, z: 0, w: 1}
  m_LocalPosition: {x: .0550400019, y: .114822827, z: .061777398}
  m_LocalScale: {x: 1, y: 1, z: 1}
  m_Children: []
  m_Father: {fileID: 1887843162}
  m_RootOrder: 14
--- !u!1 &684739212
GameObject:
  m_ObjectHideFlags: 0
  m_PrefabParentObject: {fileID: 100072, guid: 2ab0893f5bba9b243b65e309e78089d0, type: 3}
  m_PrefabInternal: {fileID: 587774303}
  serializedVersion: 4
  m_Component:
  - 4: {fileID: 684739213}
  m_Layer: 0
  m_Name: LeftLipUpper
  m_TagString: Untagged
  m_Icon: {fileID: 0}
  m_NavMeshLayer: 0
  m_StaticEditorFlags: 0
  m_IsActive: 1
--- !u!4 &684739213
Transform:
  m_ObjectHideFlags: 0
  m_PrefabParentObject: {fileID: 400072, guid: 2ab0893f5bba9b243b65e309e78089d0, type: 3}
  m_PrefabInternal: {fileID: 587774303}
  m_GameObject: {fileID: 684739212}
  m_LocalRotation: {x: 0, y: 0, z: 0, w: 1}
  m_LocalPosition: {x: -.0145013221, y: -.00511181122, z: .094618842}
  m_LocalScale: {x: 1, y: 1, z: 1}
  m_Children: []
  m_Father: {fileID: 1887843162}
  m_RootOrder: 7
--- !u!1 &710831800
GameObject:
  m_ObjectHideFlags: 0
  m_PrefabParentObject: {fileID: 100046, guid: 2ab0893f5bba9b243b65e309e78089d0, type: 3}
  m_PrefabInternal: {fileID: 587774303}
  serializedVersion: 4
  m_Component:
  - 4: {fileID: 710831801}
  m_Layer: 0
  m_Name: LeftHandPinky2
  m_TagString: Untagged
  m_Icon: {fileID: 0}
  m_NavMeshLayer: 0
  m_StaticEditorFlags: 0
  m_IsActive: 1
--- !u!4 &710831801
Transform:
  m_ObjectHideFlags: 0
  m_PrefabParentObject: {fileID: 400046, guid: 2ab0893f5bba9b243b65e309e78089d0, type: 3}
  m_PrefabInternal: {fileID: 587774303}
  m_GameObject: {fileID: 710831800}
  m_LocalRotation: {x: -.000170628467, y: -.00966134761, z: -.00536240125, w: .999938965}
  m_LocalPosition: {x: -.0308054481, y: -3.0874573e-05, z: -.0014480775}
  m_LocalScale: {x: 1, y: 1, z: 1}
  m_Children:
  - {fileID: 1179802834}
  m_Father: {fileID: 1451271956}
  m_RootOrder: 0
--- !u!1 &734667866
GameObject:
  m_ObjectHideFlags: 0
  m_PrefabParentObject: {fileID: 100068, guid: 2ab0893f5bba9b243b65e309e78089d0, type: 3}
  m_PrefabInternal: {fileID: 587774303}
  serializedVersion: 4
  m_Component:
  - 4: {fileID: 734667867}
  m_Layer: 0
  m_Name: LeftLipCorner
  m_TagString: Untagged
  m_Icon: {fileID: 0}
  m_NavMeshLayer: 0
  m_StaticEditorFlags: 0
  m_IsActive: 1
--- !u!4 &734667867
Transform:
  m_ObjectHideFlags: 0
  m_PrefabParentObject: {fileID: 400068, guid: 2ab0893f5bba9b243b65e309e78089d0, type: 3}
  m_PrefabInternal: {fileID: 587774303}
  m_GameObject: {fileID: 734667866}
  m_LocalRotation: {x: 0, y: 0, z: 0, w: 1}
  m_LocalPosition: {x: -.032843262, y: -.01657876, z: .0661217645}
  m_LocalScale: {x: 1, y: 1, z: 1}
  m_Children: []
  m_Father: {fileID: 753026299}
  m_RootOrder: 1
--- !u!1 &743527841
GameObject:
  m_ObjectHideFlags: 0
  m_PrefabParentObject: {fileID: 100040, guid: 2ab0893f5bba9b243b65e309e78089d0, type: 3}
  m_PrefabInternal: {fileID: 587774303}
  serializedVersion: 4
  m_Component:
  - 4: {fileID: 743527842}
  m_Layer: 0
  m_Name: LeftHandMiddle2
  m_TagString: Untagged
  m_Icon: {fileID: 0}
  m_NavMeshLayer: 0
  m_StaticEditorFlags: 0
  m_IsActive: 1
--- !u!4 &743527842
Transform:
  m_ObjectHideFlags: 0
  m_PrefabParentObject: {fileID: 400040, guid: 2ab0893f5bba9b243b65e309e78089d0, type: 3}
  m_PrefabInternal: {fileID: 587774303}
  m_GameObject: {fileID: 743527841}
  m_LocalRotation: {x: -.00145348674, y: -.0264088325, z: .0570813417, w: .998019159}
  m_LocalPosition: {x: -.0442804359, y: 4.79887422e-06, z: -.000425400125}
  m_LocalScale: {x: 1, y: 1, z: 1}
  m_Children:
  - {fileID: 2013877176}
  m_Father: {fileID: 480575303}
  m_RootOrder: 0
--- !u!1 &744116965
GameObject:
  m_ObjectHideFlags: 0
  m_PrefabParentObject: {fileID: 100028, guid: 2ab0893f5bba9b243b65e309e78089d0, type: 3}
  m_PrefabInternal: {fileID: 587774303}
  serializedVersion: 4
  m_Component:
  - 4: {fileID: 744116966}
  m_Layer: 0
  m_Name: LeftForeArm
  m_TagString: Untagged
  m_Icon: {fileID: 0}
  m_NavMeshLayer: 0
  m_StaticEditorFlags: 0
  m_IsActive: 1
--- !u!4 &744116966
Transform:
  m_ObjectHideFlags: 0
  m_PrefabParentObject: {fileID: 400028, guid: 2ab0893f5bba9b243b65e309e78089d0, type: 3}
  m_PrefabInternal: {fileID: 587774303}
  m_GameObject: {fileID: 744116965}
  m_LocalRotation: {x: -.000616519479, y: .0220786259, z: -.016070243, w: .999626935}
  m_LocalPosition: {x: -.254049301, y: 0, z: 0}
  m_LocalScale: {x: 1, y: 1, z: 1}
  m_Children:
  - {fileID: 2101262864}
  m_Father: {fileID: 1510559728}
  m_RootOrder: 0
--- !u!1 &753026298
GameObject:
  m_ObjectHideFlags: 0
  m_PrefabParentObject: {fileID: 100010, guid: 2ab0893f5bba9b243b65e309e78089d0, type: 3}
  m_PrefabInternal: {fileID: 587774303}
  serializedVersion: 4
  m_Component:
  - 4: {fileID: 753026299}
  m_Layer: 0
  m_Name: Jaw
  m_TagString: Untagged
  m_Icon: {fileID: 0}
  m_NavMeshLayer: 0
  m_StaticEditorFlags: 0
  m_IsActive: 1
--- !u!4 &753026299
Transform:
  m_ObjectHideFlags: 0
  m_PrefabParentObject: {fileID: 400010, guid: 2ab0893f5bba9b243b65e309e78089d0, type: 3}
  m_PrefabInternal: {fileID: 587774303}
  m_GameObject: {fileID: 753026298}
  m_LocalRotation: {x: 0, y: 0, z: 0, w: 1}
  m_LocalPosition: {x: -0, y: .0111267585, z: .0103275431}
  m_LocalScale: {x: 1, y: 1, z: 1}
  m_Children:
  - {fileID: 1058868114}
  - {fileID: 734667867}
  - {fileID: 277752023}
  - {fileID: 860491607}
  - {fileID: 268434208}
  - {fileID: 137337015}
  m_Father: {fileID: 1887843162}
  m_RootOrder: 0
--- !u!1 &799151193
GameObject:
  m_ObjectHideFlags: 0
  m_PrefabParentObject: {fileID: 100156, guid: 2ab0893f5bba9b243b65e309e78089d0, type: 3}
  m_PrefabInternal: {fileID: 587774303}
  serializedVersion: 4
  m_Component:
  - 4: {fileID: 799151194}
  m_Layer: 0
  m_Name: Spine
  m_TagString: Untagged
  m_Icon: {fileID: 0}
  m_NavMeshLayer: 0
  m_StaticEditorFlags: 0
  m_IsActive: 1
--- !u!4 &799151194
Transform:
  m_ObjectHideFlags: 0
  m_PrefabParentObject: {fileID: 400156, guid: 2ab0893f5bba9b243b65e309e78089d0, type: 3}
  m_PrefabInternal: {fileID: 587774303}
  m_GameObject: {fileID: 799151193}
  m_LocalRotation: {x: 0, y: 0, z: 0, w: 1}
  m_LocalPosition: {x: -0, y: .0922631845, z: .0157713313}
  m_LocalScale: {x: 1, y: 1, z: 1}
  m_Children:
  - {fileID: 1424801227}
  m_Father: {fileID: 129267891}
  m_RootOrder: 2
--- !u!1 &801788023
GameObject:
  m_ObjectHideFlags: 0
  m_PrefabParentObject: {fileID: 100134, guid: 2ab0893f5bba9b243b65e309e78089d0, type: 3}
  m_PrefabInternal: {fileID: 587774303}
  serializedVersion: 4
  m_Component:
  - 4: {fileID: 801788024}
  m_Layer: 0
  m_Name: RightHandThumb3
  m_TagString: Untagged
  m_Icon: {fileID: 0}
  m_NavMeshLayer: 0
  m_StaticEditorFlags: 0
  m_IsActive: 1
--- !u!4 &801788024
Transform:
  m_ObjectHideFlags: 0
  m_PrefabParentObject: {fileID: 400134, guid: 2ab0893f5bba9b243b65e309e78089d0, type: 3}
  m_PrefabInternal: {fileID: 587774303}
  m_GameObject: {fileID: 801788023}
  m_LocalRotation: {x: 0, y: 0, z: 0, w: 1}
  m_LocalPosition: {x: .0254599992, y: -.00763999997, z: .0208330005}
  m_LocalScale: {x: 1, y: 1, z: 1}
  m_Children: []
  m_Father: {fileID: 458739645}
  m_RootOrder: 0
--- !u!1 &817903205
GameObject:
  m_ObjectHideFlags: 0
  m_PrefabParentObject: {fileID: 100150, guid: 2ab0893f5bba9b243b65e309e78089d0, type: 3}
  m_PrefabInternal: {fileID: 587774303}
  serializedVersion: 4
  m_Component:
  - 4: {fileID: 817903206}
  m_Layer: 0
  m_Name: RightShoulder
  m_TagString: Untagged
  m_Icon: {fileID: 0}
  m_NavMeshLayer: 0
  m_StaticEditorFlags: 0
  m_IsActive: 1
--- !u!4 &817903206
Transform:
  m_ObjectHideFlags: 0
  m_PrefabParentObject: {fileID: 400150, guid: 2ab0893f5bba9b243b65e309e78089d0, type: 3}
  m_PrefabInternal: {fileID: 587774303}
  m_GameObject: {fileID: 817903205}
  m_LocalRotation: {x: .228671968, y: .971582174, z: -.0140056796, w: -.0595073737}
  m_LocalPosition: {x: .0383285098, y: .192176744, z: -.017063085}
  m_LocalScale: {x: 1, y: 1, z: 1}
  m_Children:
  - {fileID: 1712984523}
  m_Father: {fileID: 1424801227}
  m_RootOrder: 2
--- !u!1 &826071510
GameObject:
  m_ObjectHideFlags: 0
  m_PrefabParentObject: {fileID: 0}
  m_PrefabInternal: {fileID: 0}
  serializedVersion: 4
  m_Component:
  - 4: {fileID: 826071515}
  - 20: {fileID: 826071514}
  - 92: {fileID: 826071513}
  - 124: {fileID: 826071512}
  - 81: {fileID: 826071511}
  - 114: {fileID: 826071517}
  m_Layer: 0
  m_Name: Main Camera
  m_TagString: MainCamera
  m_Icon: {fileID: 0}
  m_NavMeshLayer: 0
  m_StaticEditorFlags: 0
  m_IsActive: 1
--- !u!81 &826071511
AudioListener:
  m_ObjectHideFlags: 0
  m_PrefabParentObject: {fileID: 0}
  m_PrefabInternal: {fileID: 0}
  m_GameObject: {fileID: 826071510}
  m_Enabled: 1
--- !u!124 &826071512
Behaviour:
  m_ObjectHideFlags: 0
  m_PrefabParentObject: {fileID: 0}
  m_PrefabInternal: {fileID: 0}
  m_GameObject: {fileID: 826071510}
  m_Enabled: 1
--- !u!92 &826071513
Behaviour:
  m_ObjectHideFlags: 0
  m_PrefabParentObject: {fileID: 0}
  m_PrefabInternal: {fileID: 0}
  m_GameObject: {fileID: 826071510}
  m_Enabled: 1
--- !u!20 &826071514
Camera:
  m_ObjectHideFlags: 0
  m_PrefabParentObject: {fileID: 0}
  m_PrefabInternal: {fileID: 0}
  m_GameObject: {fileID: 826071510}
  m_Enabled: 1
  serializedVersion: 2
  m_ClearFlags: 1
  m_BackGroundColor: {r: .594615042, g: .860294104, b: .827313244, a: .0196078438}
  m_NormalizedViewPortRect:
    serializedVersion: 2
    x: 0
    y: 0
    width: 1
    height: 1
  near clip plane: .300000012
  far clip plane: 1000
  field of view: 60
  orthographic: 0
  orthographic size: 100
  m_Depth: -1
  m_CullingMask:
    serializedVersion: 2
    m_Bits: 4294967295
  m_RenderingPath: -1
  m_TargetTexture: {fileID: 0}
  m_TargetDisplay: 0
  m_HDR: 0
  m_OcclusionCulling: 1
  m_StereoConvergence: 10
  m_StereoSeparation: .0219999999
  m_StereoMirrorMode: 0
--- !u!4 &826071515
Transform:
  m_ObjectHideFlags: 0
  m_PrefabParentObject: {fileID: 0}
  m_PrefabInternal: {fileID: 0}
  m_GameObject: {fileID: 826071510}
  m_LocalRotation: {x: .131815806, y: 0, z: 0, w: .991274238}
  m_LocalPosition: {x: 0, y: 5.86171818, z: -3.97008777}
  m_LocalScale: {x: 1, y: 1, z: 1}
  m_Children: []
  m_Father: {fileID: 0}
  m_RootOrder: 2
--- !u!114 &826071517
MonoBehaviour:
  m_ObjectHideFlags: 0
  m_PrefabParentObject: {fileID: 0}
  m_PrefabInternal: {fileID: 0}
  m_GameObject: {fileID: 826071510}
  m_Enabled: 1
  m_EditorHideFlags: 0
  m_Script: {fileID: 11500000, guid: 15d3d5c549601404d9accd77b0e7036f, type: 3}
  m_Name: 
  m_EditorClassIdentifier: 
  target: {fileID: 1411765133}
  bumper:
    collisionType: 1
    distanceCheck: 2.5
    newCameraHeight: 1
    offset: {x: 0, y: 0, z: 0}
  controls:
  - target: 1
    stepSize: 2
    mouseCode: 1
    keyCode: 0
  - target: 0
    stepSize: 1
    mouseCode: 1
    keyCode: 0
  - target: 3
    stepSize: .5
    mouseCode: 1
    keyCode: 0
  - target: 2
    stepSize: -1
    mouseCode: 0
    keyCode: 276
  - target: 2
    stepSize: 1
    mouseCode: 0
    keyCode: 275
  lookAtOffset: {x: 0, y: 1, z: 0}
  rotationType: 2
  translationType: 2
  distance:
    min: 1
    max: 10
    current: 3
  height:
    min: 1
    max: 5
    current: 2
  panX:
    min: -1
    max: 1
    current: 0
  panY:
    min: 0
    max: 2
    current: 0
  damping: 5
  rotationDamping: 10
--- !u!1 &860491606
GameObject:
  m_ObjectHideFlags: 0
  m_PrefabParentObject: {fileID: 100142, guid: 2ab0893f5bba9b243b65e309e78089d0, type: 3}
  m_PrefabInternal: {fileID: 587774303}
  serializedVersion: 4
  m_Component:
  - 4: {fileID: 860491607}
  m_Layer: 0
  m_Name: RightLipCorner
  m_TagString: Untagged
  m_Icon: {fileID: 0}
  m_NavMeshLayer: 0
  m_StaticEditorFlags: 0
  m_IsActive: 1
--- !u!4 &860491607
Transform:
  m_ObjectHideFlags: 0
  m_PrefabParentObject: {fileID: 400142, guid: 2ab0893f5bba9b243b65e309e78089d0, type: 3}
  m_PrefabInternal: {fileID: 587774303}
  m_GameObject: {fileID: 860491606}
  m_LocalRotation: {x: 0, y: 0, z: 0, w: 1}
  m_LocalPosition: {x: .0328399986, y: -.01657876, z: .0661187842}
  m_LocalScale: {x: 1, y: 1, z: 1}
  m_Children: []
  m_Father: {fileID: 753026299}
  m_RootOrder: 3
--- !u!1 &863801690
GameObject:
  m_ObjectHideFlags: 0
  m_PrefabParentObject: {fileID: 100102, guid: 2ab0893f5bba9b243b65e309e78089d0, type: 3}
  m_PrefabInternal: {fileID: 587774303}
  serializedVersion: 4
  m_Component:
  - 4: {fileID: 863801691}
  m_Layer: 0
  m_Name: RightForeArm
  m_TagString: Untagged
  m_Icon: {fileID: 0}
  m_NavMeshLayer: 0
  m_StaticEditorFlags: 0
  m_IsActive: 1
--- !u!4 &863801691
Transform:
  m_ObjectHideFlags: 0
  m_PrefabParentObject: {fileID: 400102, guid: 2ab0893f5bba9b243b65e309e78089d0, type: 3}
  m_PrefabInternal: {fileID: 587774303}
  m_GameObject: {fileID: 863801690}
  m_LocalRotation: {x: -.000616519479, y: .0220786259, z: -.016070243, w: .999626935}
  m_LocalPosition: {x: .253428251, y: .00601135287, z: -.0167045239}
  m_LocalScale: {x: 1, y: 1, z: 1}
  m_Children:
  - {fileID: 1741271325}
  m_Father: {fileID: 1712984523}
  m_RootOrder: 0
--- !u!1 &983597348
GameObject:
  m_ObjectHideFlags: 0
  m_PrefabParentObject: {fileID: 100152, guid: 2ab0893f5bba9b243b65e309e78089d0, type: 3}
  m_PrefabInternal: {fileID: 587774303}
  serializedVersion: 4
  m_Component:
  - 4: {fileID: 983597349}
  m_Layer: 0
  m_Name: RightToes
  m_TagString: Untagged
  m_Icon: {fileID: 0}
  m_NavMeshLayer: 0
  m_StaticEditorFlags: 0
  m_IsActive: 1
--- !u!4 &983597349
Transform:
  m_ObjectHideFlags: 0
  m_PrefabParentObject: {fileID: 400152, guid: 2ab0893f5bba9b243b65e309e78089d0, type: 3}
  m_PrefabInternal: {fileID: 587774303}
  m_GameObject: {fileID: 983597348}
  m_LocalRotation: {x: 0, y: 0, z: 0, w: 1}
  m_LocalPosition: {x: .00748699997, y: -.0731673017, z: .145427495}
  m_LocalScale: {x: 1, y: 1, z: 1}
  m_Children: []
  m_Father: {fileID: 522869120}
  m_RootOrder: 0
--- !u!1 &1029943649
GameObject:
  m_ObjectHideFlags: 0
  m_PrefabParentObject: {fileID: 100064, guid: 2ab0893f5bba9b243b65e309e78089d0, type: 3}
  m_PrefabInternal: {fileID: 587774303}
  serializedVersion: 4
  m_Component:
  - 4: {fileID: 1029943650}
  m_Layer: 0
  m_Name: LeftIOuterBrow
  m_TagString: Untagged
  m_Icon: {fileID: 0}
  m_NavMeshLayer: 0
  m_StaticEditorFlags: 0
  m_IsActive: 1
--- !u!4 &1029943650
Transform:
  m_ObjectHideFlags: 0
  m_PrefabParentObject: {fileID: 400064, guid: 2ab0893f5bba9b243b65e309e78089d0, type: 3}
  m_PrefabInternal: {fileID: 587774303}
  m_GameObject: {fileID: 1029943649}
  m_LocalRotation: {x: 0, y: 0, z: 0, w: 1}
  m_LocalPosition: {x: -.0550398715, y: .114825293, z: .061777398}
  m_LocalScale: {x: 1, y: 1, z: 1}
  m_Children: []
  m_Father: {fileID: 1887843162}
  m_RootOrder: 6
--- !u!1 &1058868113
GameObject:
  m_ObjectHideFlags: 0
  m_PrefabParentObject: {fileID: 100012, guid: 2ab0893f5bba9b243b65e309e78089d0, type: 3}
  m_PrefabInternal: {fileID: 587774303}
  serializedVersion: 4
  m_Component:
  - 4: {fileID: 1058868114}
  m_Layer: 0
  m_Name: JawEND
  m_TagString: Untagged
  m_Icon: {fileID: 0}
  m_NavMeshLayer: 0
  m_StaticEditorFlags: 0
  m_IsActive: 1
--- !u!4 &1058868114
Transform:
  m_ObjectHideFlags: 0
  m_PrefabParentObject: {fileID: 400012, guid: 2ab0893f5bba9b243b65e309e78089d0, type: 3}
  m_PrefabInternal: {fileID: 587774303}
  m_GameObject: {fileID: 1058868113}
  m_LocalRotation: {x: 0, y: 0, z: 0, w: 1}
  m_LocalPosition: {x: -0, y: -.0482887588, z: .071851708}
  m_LocalScale: {x: 1, y: 1, z: 1}
  m_Children: []
  m_Father: {fileID: 753026299}
  m_RootOrder: 0
--- !u!1 &1061272565
GameObject:
  m_ObjectHideFlags: 0
  m_PrefabParentObject: {fileID: 100094, guid: 2ab0893f5bba9b243b65e309e78089d0, type: 3}
  m_PrefabInternal: {fileID: 587774303}
  serializedVersion: 4
  m_Component:
  - 4: {fileID: 1061272566}
  m_Layer: 0
  m_Name: RightEye
  m_TagString: Untagged
  m_Icon: {fileID: 0}
  m_NavMeshLayer: 0
  m_StaticEditorFlags: 0
  m_IsActive: 1
--- !u!4 &1061272566
Transform:
  m_ObjectHideFlags: 0
  m_PrefabParentObject: {fileID: 400094, guid: 2ab0893f5bba9b243b65e309e78089d0, type: 3}
  m_PrefabInternal: {fileID: 587774303}
  m_GameObject: {fileID: 1061272565}
  m_LocalRotation: {x: 0, y: 0, z: 0, w: 1}
  m_LocalPosition: {x: .020849999, y: .082502827, z: .0554273985}
  m_LocalScale: {x: 1, y: 1, z: 1}
  m_Children:
  - {fileID: 2009937816}
  m_Father: {fileID: 1887843162}
  m_RootOrder: 10
--- !u!1 &1073348920
GameObject:
  m_ObjectHideFlags: 0
  m_PrefabParentObject: {fileID: 100066, guid: 2ab0893f5bba9b243b65e309e78089d0, type: 3}
  m_PrefabInternal: {fileID: 587774303}
  serializedVersion: 4
  m_Component:
  - 4: {fileID: 1073348921}
  m_Layer: 0
  m_Name: LeftLeg
  m_TagString: Untagged
  m_Icon: {fileID: 0}
  m_NavMeshLayer: 0
  m_StaticEditorFlags: 0
  m_IsActive: 1
--- !u!4 &1073348921
Transform:
  m_ObjectHideFlags: 0
  m_PrefabParentObject: {fileID: 400066, guid: 2ab0893f5bba9b243b65e309e78089d0, type: 3}
  m_PrefabInternal: {fileID: 587774303}
  m_GameObject: {fileID: 1073348920}
  m_LocalRotation: {x: 0, y: 0, z: 0, w: 1}
  m_LocalPosition: {x: -.0205504987, y: -.409129977, z: .00717136543}
  m_LocalScale: {x: 1, y: 1, z: 1}
  m_Children:
  - {fileID: 1766012255}
  m_Father: {fileID: 1671330501}
  m_RootOrder: 0
--- !u!1 &1163625088
GameObject:
  m_ObjectHideFlags: 0
  m_PrefabParentObject: {fileID: 100096, guid: 2ab0893f5bba9b243b65e309e78089d0, type: 3}
  m_PrefabInternal: {fileID: 587774303}
  serializedVersion: 4
  m_Component:
  - 4: {fileID: 1163625089}
  m_Layer: 0
  m_Name: RightEyelidLower
  m_TagString: Untagged
  m_Icon: {fileID: 0}
  m_NavMeshLayer: 0
  m_StaticEditorFlags: 0
  m_IsActive: 1
--- !u!4 &1163625089
Transform:
  m_ObjectHideFlags: 0
  m_PrefabParentObject: {fileID: 400096, guid: 2ab0893f5bba9b243b65e309e78089d0, type: 3}
  m_PrefabInternal: {fileID: 587774303}
  m_GameObject: {fileID: 1163625088}
  m_LocalRotation: {x: -.0348994955, y: 0, z: -0, w: .999390841}
  m_LocalPosition: {x: .0356200002, y: .065072827, z: .0762374029}
  m_LocalScale: {x: 1, y: 1, z: 1}
  m_Children: []
  m_Father: {fileID: 1887843162}
  m_RootOrder: 11
--- !u!1 &1179802833
GameObject:
  m_ObjectHideFlags: 0
  m_PrefabParentObject: {fileID: 100048, guid: 2ab0893f5bba9b243b65e309e78089d0, type: 3}
  m_PrefabInternal: {fileID: 587774303}
  serializedVersion: 4
  m_Component:
  - 4: {fileID: 1179802834}
  m_Layer: 0
  m_Name: LeftHandPinky3
  m_TagString: Untagged
  m_Icon: {fileID: 0}
  m_NavMeshLayer: 0
  m_StaticEditorFlags: 0
  m_IsActive: 1
--- !u!4 &1179802834
Transform:
  m_ObjectHideFlags: 0
  m_PrefabParentObject: {fileID: 400048, guid: 2ab0893f5bba9b243b65e309e78089d0, type: 3}
  m_PrefabInternal: {fileID: 587774303}
  m_GameObject: {fileID: 1179802833}
  m_LocalRotation: {x: 0, y: 0, z: 0, w: 1}
  m_LocalPosition: {x: -.0230640266, y: -6.40258077e-06, z: 1.8332095e-08}
  m_LocalScale: {x: 1, y: 1, z: 1}
  m_Children: []
  m_Father: {fileID: 710831801}
  m_RootOrder: 0
--- !u!1 &1203000748
GameObject:
  m_ObjectHideFlags: 0
  m_PrefabParentObject: {fileID: 100164, guid: 2ab0893f5bba9b243b65e309e78089d0, type: 3}
  m_PrefabInternal: {fileID: 587774303}
  serializedVersion: 4
  m_Component:
  - 4: {fileID: 1203000749}
  - 137: {fileID: 1203000750}
  m_Layer: 0
  m_Name: Unity_Body_Mesh
  m_TagString: Untagged
  m_Icon: {fileID: 0}
  m_NavMeshLayer: 0
  m_StaticEditorFlags: 0
  m_IsActive: 1
--- !u!4 &1203000749
Transform:
  m_ObjectHideFlags: 0
  m_PrefabParentObject: {fileID: 400164, guid: 2ab0893f5bba9b243b65e309e78089d0, type: 3}
  m_PrefabInternal: {fileID: 587774303}
  m_GameObject: {fileID: 1203000748}
  m_LocalRotation: {x: 0, y: 0, z: 0, w: 1}
  m_LocalPosition: {x: 0, y: 0, z: 0}
  m_LocalScale: {x: 1, y: 1, z: 1}
  m_Children: []
  m_Father: {fileID: 1367915533}
  m_RootOrder: 2
--- !u!137 &1203000750
SkinnedMeshRenderer:
  m_ObjectHideFlags: 0
  m_PrefabParentObject: {fileID: 13700004, guid: 2ab0893f5bba9b243b65e309e78089d0,
    type: 3}
  m_PrefabInternal: {fileID: 587774303}
  m_GameObject: {fileID: 1203000748}
  m_Enabled: 1
  m_CastShadows: 1
  m_ReceiveShadows: 1
  m_Materials:
  - {fileID: 2100000, guid: b7ea6aee242ed8349816e5ad85f181a8, type: 2}
  - {fileID: 2100000, guid: c46b61d8956ccde45ae8a78ee57c2739, type: 2}
  m_SubsetIndices: 
  m_StaticBatchRoot: {fileID: 0}
  m_UseLightProbes: 1
  m_ReflectionProbeUsage: 1
  m_ProbeAnchor: {fileID: 0}
  m_ScaleInLightmap: 1
  m_PreserveUVs: 0
  m_ImportantGI: 0
  m_AutoUVMaxDistance: .5
  m_AutoUVMaxAngle: 89
  m_LightmapParameters: {fileID: 0}
  m_SortingLayerID: 0
  m_SortingOrder: 0
  serializedVersion: 2
  m_Quality: 0
  m_UpdateWhenOffscreen: 0
  m_Mesh: {fileID: 4300004, guid: 2ab0893f5bba9b243b65e309e78089d0, type: 3}
  m_Bones:
  - {fileID: 129267891}
  - {fileID: 799151194}
  - {fileID: 1424801227}
  - {fileID: 315447354}
  - {fileID: 1887843162}
  - {fileID: 2096083065}
  - {fileID: 1061272566}
  - {fileID: 753026299}
  - {fileID: 137337015}
  - {fileID: 25292366}
  - {fileID: 277752023}
  - {fileID: 1058868114}
  - {fileID: 268434208}
  - {fileID: 860491607}
  - {fileID: 734667867}
  - {fileID: 684739213}
  - {fileID: 327636016}
  - {fileID: 195787590}
  - {fileID: 511612876}
  - {fileID: 1953445780}
  - {fileID: 1623197408}
  - {fileID: 1029943650}
  - {fileID: 1857842799}
  - {fileID: 682127009}
  - {fileID: 288424768}
  - {fileID: 1163625089}
  - {fileID: 325846140}
  - {fileID: 483601764}
  - {fileID: 1830709057}
  - {fileID: 817903206}
  - {fileID: 1712984523}
  - {fileID: 863801691}
  - {fileID: 1741271325}
  - {fileID: 1500758059}
  - {fileID: 458739645}
  - {fileID: 801788024}
  - {fileID: 1478412045}
  - {fileID: 1423159450}
  - {fileID: 1541669973}
  - {fileID: 1299384097}
  - {fileID: 1526258572}
  - {fileID: 354910446}
  - {fileID: 107592441}
  - {fileID: 1730835383}
  - {fileID: 1321411655}
  - {fileID: 516177467}
  - {fileID: 1266925696}
  - {fileID: 246053785}
  - {fileID: 2076437658}
  - {fileID: 1510559728}
  - {fileID: 744116966}
  - {fileID: 2101262864}
  - {fileID: 1965283734}
  - {fileID: 1808476630}
  - {fileID: 1382217653}
  - {fileID: 571261090}
  - {fileID: 385157606}
  - {fileID: 1592215011}
  - {fileID: 480575303}
  - {fileID: 743527842}
  - {fileID: 2013877176}
  - {fileID: 125677792}
  - {fileID: 239416497}
  - {fileID: 1813436251}
  - {fileID: 1451271956}
  - {fileID: 710831801}
  - {fileID: 1179802834}
  - {fileID: 1906499969}
  - {fileID: 1625540091}
  - {fileID: 522869120}
  - {fileID: 983597349}
  - {fileID: 1671330501}
  - {fileID: 1073348921}
  - {fileID: 1766012255}
  - {fileID: 51004867}
  m_BlendShapeWeights: []
  m_RootBone: {fileID: 129267891}
  m_AABB:
    m_Center: {x: .000666618347, y: -.100056082, z: .054993704}
    m_Extent: {x: .814079702, y: .864130616, z: .141355291}
  m_DirtyAABB: 0
--- !u!1 &1266925695
GameObject:
  m_ObjectHideFlags: 0
  m_PrefabParentObject: {fileID: 100120, guid: 2ab0893f5bba9b243b65e309e78089d0, type: 3}
  m_PrefabInternal: {fileID: 587774303}
  serializedVersion: 4
  m_Component:
  - 4: {fileID: 1266925696}
  m_Layer: 0
  m_Name: RightHandPinky2
  m_TagString: Untagged
  m_Icon: {fileID: 0}
  m_NavMeshLayer: 0
  m_StaticEditorFlags: 0
  m_IsActive: 1
--- !u!4 &1266925696
Transform:
  m_ObjectHideFlags: 0
  m_PrefabParentObject: {fileID: 400120, guid: 2ab0893f5bba9b243b65e309e78089d0, type: 3}
  m_PrefabInternal: {fileID: 587774303}
  m_GameObject: {fileID: 1266925695}
  m_LocalRotation: {x: -.000170628467, y: -.00966134761, z: -.00536240125, w: .999938965}
  m_LocalPosition: {x: .0285308417, y: -.001397143, z: -.0116237961}
  m_LocalScale: {x: 1, y: 1, z: 1}
  m_Children:
  - {fileID: 246053785}
  m_Father: {fileID: 516177467}
  m_RootOrder: 0
--- !u!1 &1299384096
GameObject:
  m_ObjectHideFlags: 0
  m_PrefabParentObject: {fileID: 100112, guid: 2ab0893f5bba9b243b65e309e78089d0, type: 3}
  m_PrefabInternal: {fileID: 587774303}
  serializedVersion: 4
  m_Component:
  - 4: {fileID: 1299384097}
  m_Layer: 0
  m_Name: RightHandMiddle1
  m_TagString: Untagged
  m_Icon: {fileID: 0}
  m_NavMeshLayer: 0
  m_StaticEditorFlags: 0
  m_IsActive: 1
--- !u!4 &1299384097
Transform:
  m_ObjectHideFlags: 0
  m_PrefabParentObject: {fileID: 400112, guid: 2ab0893f5bba9b243b65e309e78089d0, type: 3}
  m_PrefabInternal: {fileID: 587774303}
  m_GameObject: {fileID: 1299384096}
  m_LocalRotation: {x: -.000768873375, y: .0333210826, z: .020907538, w: .999225736}
  m_LocalPosition: {x: .0756476447, y: .00479140272, z: .0118531818}
  m_LocalScale: {x: 1, y: 1, z: 1}
  m_Children:
  - {fileID: 1526258572}
  m_Father: {fileID: 1741271325}
  m_RootOrder: 1
--- !u!1 &1321411654
GameObject:
  m_ObjectHideFlags: 0
  m_PrefabParentObject: {fileID: 100128, guid: 2ab0893f5bba9b243b65e309e78089d0, type: 3}
  m_PrefabInternal: {fileID: 587774303}
  serializedVersion: 4
  m_Component:
  - 4: {fileID: 1321411655}
  m_Layer: 0
  m_Name: RightHandRing3
  m_TagString: Untagged
  m_Icon: {fileID: 0}
  m_NavMeshLayer: 0
  m_StaticEditorFlags: 0
  m_IsActive: 1
--- !u!4 &1321411655
Transform:
  m_ObjectHideFlags: 0
  m_PrefabParentObject: {fileID: 400128, guid: 2ab0893f5bba9b243b65e309e78089d0, type: 3}
  m_PrefabInternal: {fileID: 587774303}
  m_GameObject: {fileID: 1321411654}
  m_LocalRotation: {x: 0, y: 0, z: 0, w: 1}
  m_LocalPosition: {x: .0295006037, y: -.00769293541, z: -.00462225592}
  m_LocalScale: {x: 1, y: 1, z: 1}
  m_Children: []
  m_Father: {fileID: 1730835383}
  m_RootOrder: 0
--- !u!1 &1367915532
GameObject:
  m_ObjectHideFlags: 0
  m_PrefabParentObject: {fileID: 100004, guid: 2ab0893f5bba9b243b65e309e78089d0, type: 3}
  m_PrefabInternal: {fileID: 587774303}
  serializedVersion: 4
  m_Component:
  - 4: {fileID: 1367915533}
  m_Layer: 0
  m_Name: Geo_grp
  m_TagString: Untagged
  m_Icon: {fileID: 0}
  m_NavMeshLayer: 0
  m_StaticEditorFlags: 0
  m_IsActive: 1
--- !u!4 &1367915533
Transform:
  m_ObjectHideFlags: 0
  m_PrefabParentObject: {fileID: 400004, guid: 2ab0893f5bba9b243b65e309e78089d0, type: 3}
  m_PrefabInternal: {fileID: 587774303}
  m_GameObject: {fileID: 1367915532}
  m_LocalRotation: {x: 0, y: 0, z: 0, w: 1}
  m_LocalPosition: {x: 0, y: 0, z: 0}
  m_LocalScale: {x: 1, y: 1, z: 1}
  m_Children:
  - {fileID: 2089358804}
  - {fileID: 373842234}
  - {fileID: 1203000749}
  - {fileID: 559612483}
  m_Father: {fileID: 1411765133}
  m_RootOrder: 0
--- !u!1 &1382217652
GameObject:
  m_ObjectHideFlags: 0
  m_PrefabParentObject: {fileID: 100060, guid: 2ab0893f5bba9b243b65e309e78089d0, type: 3}
  m_PrefabInternal: {fileID: 587774303}
  serializedVersion: 4
  m_Component:
  - 4: {fileID: 1382217653}
  m_Layer: 0
  m_Name: LeftHandThumb3
  m_TagString: Untagged
  m_Icon: {fileID: 0}
  m_NavMeshLayer: 0
  m_StaticEditorFlags: 0
  m_IsActive: 1
--- !u!4 &1382217653
Transform:
  m_ObjectHideFlags: 0
  m_PrefabParentObject: {fileID: 400060, guid: 2ab0893f5bba9b243b65e309e78089d0, type: 3}
  m_PrefabInternal: {fileID: 587774303}
  m_GameObject: {fileID: 1382217652}
  m_LocalRotation: {x: 2.94405424e-08, y: 0, z: -0, w: 1}
  m_LocalPosition: {x: -.0254599992, y: -.00763999997, z: .0208330005}
  m_LocalScale: {x: 1, y: 1, z: 1}
  m_Children: []
  m_Father: {fileID: 1808476630}
  m_RootOrder: 0
--- !u!1 &1411765132
GameObject:
  m_ObjectHideFlags: 0
  m_PrefabParentObject: {fileID: 100002, guid: 2ab0893f5bba9b243b65e309e78089d0, type: 3}
  m_PrefabInternal: {fileID: 587774303}
  serializedVersion: 4
  m_Component:
  - 4: {fileID: 1411765133}
  - 95: {fileID: 1411765134}
  - 143: {fileID: 1411765136}
  - 114: {fileID: 1411765135}
  - 114: {fileID: 1411765137}
  m_Layer: 0
  m_Name: DefaultAvatar
  m_TagString: Untagged
  m_Icon: {fileID: 0}
  m_NavMeshLayer: 0
  m_StaticEditorFlags: 0
  m_IsActive: 1
--- !u!4 &1411765133
Transform:
  m_ObjectHideFlags: 0
  m_PrefabParentObject: {fileID: 400002, guid: 2ab0893f5bba9b243b65e309e78089d0, type: 3}
  m_PrefabInternal: {fileID: 587774303}
  m_GameObject: {fileID: 1411765132}
  m_LocalRotation: {x: 0, y: 0, z: 0, w: 1}
  m_LocalPosition: {x: 1.28393173, y: 3.35829306, z: 2.09931755}
  m_LocalScale: {x: 1, y: 1, z: 1}
  m_Children:
  - {fileID: 1367915533}
  - {fileID: 1746087025}
  m_Father: {fileID: 0}
  m_RootOrder: 0
--- !u!95 &1411765134
Animator:
  serializedVersion: 3
  m_ObjectHideFlags: 0
  m_PrefabParentObject: {fileID: 9500000, guid: 2ab0893f5bba9b243b65e309e78089d0,
    type: 3}
  m_PrefabInternal: {fileID: 587774303}
  m_GameObject: {fileID: 1411765132}
  m_Enabled: 1
  m_Avatar: {fileID: 9000000, guid: 2ab0893f5bba9b243b65e309e78089d0, type: 3}
  m_Controller: {fileID: 9100000, guid: 1674f0cd8ce7e6f44a3c9f7b09ac4c23, type: 2}
  m_CullingMode: 1
  m_UpdateMode: 0
  m_ApplyRootMotion: 0
  m_LinearVelocityBlending: 0
  m_WarningMessage: 
  m_HasTransformHierarchy: 1
  m_AllowConstantClipSamplingOptimization: 1
--- !u!114 &1411765135
MonoBehaviour:
  m_ObjectHideFlags: 0
  m_PrefabParentObject: {fileID: 0}
  m_PrefabInternal: {fileID: 0}
  m_GameObject: {fileID: 1411765132}
  m_Enabled: 1
  m_EditorHideFlags: 0
  m_Script: {fileID: 11500000, guid: d6295f50b55d6e74592343c16f398a6c, type: 3}
  m_Name: 
  m_EditorClassIdentifier: 
  speed: 1.10000002
  walkspeed: 1.10000002
  runSpeed: 2.4000001
  jumpSpeed: 3
  gravity: 10
  pistol: 0
  movementSpeed: {x: 0, y: 0, z: 0}
--- !u!143 &1411765136
CharacterController:
  m_ObjectHideFlags: 0
  m_PrefabParentObject: {fileID: 0}
  m_PrefabInternal: {fileID: 0}
  m_GameObject: {fileID: 1411765132}
  m_Material: {fileID: 0}
  m_IsTrigger: 0
  m_Enabled: 1
  serializedVersion: 2
  m_Height: 1.78999996
  m_Radius: .219999999
  m_SlopeLimit: 45
  m_StepOffset: .300000012
  m_SkinWidth: .0199999996
  m_MinMoveDistance: 0
  m_Center: {x: 0, y: .899999976, z: 0}
--- !u!114 &1411765137
MonoBehaviour:
  m_ObjectHideFlags: 0
  m_PrefabParentObject: {fileID: 0}
  m_PrefabInternal: {fileID: 0}
  m_GameObject: {fileID: 1411765132}
  m_Enabled: 1
  m_EditorHideFlags: 0
  m_Script: {fileID: 11500000, guid: 82da9325a43069a49a3f63b5eb61aadf, type: 3}
  m_Name: 
  m_EditorClassIdentifier: 
  animator: {fileID: 0}
  LHandPos1: {fileID: 1632662911}
  LHandWeight: 1
--- !u!1 &1423159449
GameObject:
  m_ObjectHideFlags: 0
  m_PrefabParentObject: {fileID: 100108, guid: 2ab0893f5bba9b243b65e309e78089d0, type: 3}
  m_PrefabInternal: {fileID: 587774303}
  serializedVersion: 4
  m_Component:
  - 4: {fileID: 1423159450}
  m_Layer: 0
  m_Name: RightHandIndex2
  m_TagString: Untagged
  m_Icon: {fileID: 0}
  m_NavMeshLayer: 0
  m_StaticEditorFlags: 0
  m_IsActive: 1
--- !u!4 &1423159450
Transform:
  m_ObjectHideFlags: 0
  m_PrefabParentObject: {fileID: 400108, guid: 2ab0893f5bba9b243b65e309e78089d0, type: 3}
  m_PrefabInternal: {fileID: 587774303}
  m_GameObject: {fileID: 1423159449}
  m_LocalRotation: {x: .000658526376, y: .0156148067, z: .0509195141, w: .998580456}
  m_LocalPosition: {x: .0370584019, y: .00072612107, z: .0145388944}
  m_LocalScale: {x: 1, y: 1, z: 1}
  m_Children:
  - {fileID: 1541669973}
  m_Father: {fileID: 1478412045}
  m_RootOrder: 0
--- !u!1 &1424801226
GameObject:
  m_ObjectHideFlags: 0
  m_PrefabParentObject: {fileID: 100000, guid: 2ab0893f5bba9b243b65e309e78089d0, type: 3}
  m_PrefabInternal: {fileID: 587774303}
  serializedVersion: 4
  m_Component:
  - 4: {fileID: 1424801227}
  m_Layer: 0
  m_Name: Chest
  m_TagString: Untagged
  m_Icon: {fileID: 0}
  m_NavMeshLayer: 0
  m_StaticEditorFlags: 0
  m_IsActive: 1
--- !u!4 &1424801227
Transform:
  m_ObjectHideFlags: 0
  m_PrefabParentObject: {fileID: 400000, guid: 2ab0893f5bba9b243b65e309e78089d0, type: 3}
  m_PrefabInternal: {fileID: 587774303}
  m_GameObject: {fileID: 1424801226}
  m_LocalRotation: {x: 0, y: 0, z: 0, w: 1}
  m_LocalPosition: {x: -0, y: .162540287, z: .0218507219}
  m_LocalScale: {x: 1, y: 1, z: 1}
  m_Children:
  - {fileID: 2076437658}
  - {fileID: 315447354}
  - {fileID: 817903206}
  m_Father: {fileID: 799151194}
  m_RootOrder: 0
--- !u!1 &1451271955
GameObject:
  m_ObjectHideFlags: 0
  m_PrefabParentObject: {fileID: 100044, guid: 2ab0893f5bba9b243b65e309e78089d0, type: 3}
  m_PrefabInternal: {fileID: 587774303}
  serializedVersion: 4
  m_Component:
  - 4: {fileID: 1451271956}
  m_Layer: 0
  m_Name: LeftHandPinky1
  m_TagString: Untagged
  m_Icon: {fileID: 0}
  m_NavMeshLayer: 0
  m_StaticEditorFlags: 0
  m_IsActive: 1
--- !u!4 &1451271956
Transform:
  m_ObjectHideFlags: 0
  m_PrefabParentObject: {fileID: 400044, guid: 2ab0893f5bba9b243b65e309e78089d0, type: 3}
  m_PrefabInternal: {fileID: 587774303}
  m_GameObject: {fileID: 1451271955}
  m_LocalRotation: {x: .000947935798, y: -.0904072002, z: .0333630852, w: .995345473}
  m_LocalPosition: {x: -.0656599477, y: -.00782510638, z: -.0322512463}
  m_LocalScale: {x: 1, y: 1, z: 1}
  m_Children:
  - {fileID: 710831801}
  m_Father: {fileID: 2101262864}
  m_RootOrder: 2
--- !u!1 &1478412044
GameObject:
  m_ObjectHideFlags: 0
  m_PrefabParentObject: {fileID: 100106, guid: 2ab0893f5bba9b243b65e309e78089d0, type: 3}
  m_PrefabInternal: {fileID: 587774303}
  serializedVersion: 4
  m_Component:
  - 4: {fileID: 1478412045}
  m_Layer: 0
  m_Name: RightHandIndex1
  m_TagString: Untagged
  m_Icon: {fileID: 0}
  m_NavMeshLayer: 0
  m_StaticEditorFlags: 0
  m_IsActive: 1
--- !u!4 &1478412045
Transform:
  m_ObjectHideFlags: 0
  m_PrefabParentObject: {fileID: 400106, guid: 2ab0893f5bba9b243b65e309e78089d0, type: 3}
  m_PrefabInternal: {fileID: 587774303}
  m_GameObject: {fileID: 1478412044}
  m_LocalRotation: {x: -.00211892044, y: .0802574381, z: .0175381862, w: .996617615}
  m_LocalPosition: {x: .0747694969, y: -.00124305359, z: .0343444981}
  m_LocalScale: {x: 1, y: 1, z: 1}
  m_Children:
  - {fileID: 1423159450}
  m_Father: {fileID: 1741271325}
  m_RootOrder: 0
--- !u!1 &1484836932
GameObject:
  m_ObjectHideFlags: 0
  m_PrefabParentObject: {fileID: 0}
  m_PrefabInternal: {fileID: 0}
  serializedVersion: 4
  m_Component:
  - 4: {fileID: 1484836934}
  - 108: {fileID: 1484836933}
  m_Layer: 0
  m_Name: Directional light
  m_TagString: Untagged
  m_Icon: {fileID: 0}
  m_NavMeshLayer: 0
  m_StaticEditorFlags: 0
  m_IsActive: 1
--- !u!108 &1484836933
Light:
  m_ObjectHideFlags: 0
  m_PrefabParentObject: {fileID: 0}
  m_PrefabInternal: {fileID: 0}
  m_GameObject: {fileID: 1484836932}
  m_Enabled: 1
  serializedVersion: 6
  m_Type: 1
  m_Color: {r: 1, g: 1, b: 1, a: 1}
  m_Intensity: 1
  m_Range: 10
  m_SpotAngle: 30
  m_CookieSize: 10
  m_Shadows:
    m_Type: 2
    m_Resolution: 3
    m_Strength: 1
    m_Bias: .0500000007
    m_NormalBias: .400000006
  m_Cookie: {fileID: 0}
  m_DrawHalo: 0
  m_Flare: {fileID: 0}
  m_RenderMode: 0
  m_CullingMask:
    serializedVersion: 2
    m_Bits: 4294967295
  m_Lightmapping: 1
  m_BounceIntensity: 1
  m_ShadowRadius: 0
  m_ShadowAngle: 0
  m_AreaSize: {x: 1, y: 1}
--- !u!4 &1484836934
Transform:
  m_ObjectHideFlags: 0
  m_PrefabParentObject: {fileID: 0}
  m_PrefabInternal: {fileID: 0}
  m_GameObject: {fileID: 1484836932}
  m_LocalRotation: {x: .408217937, y: -.234569728, z: .109381661, w: .875426114}
  m_LocalPosition: {x: 5.7525382, y: 8.78134727, z: 2.77091265}
  m_LocalScale: {x: 1, y: 1, z: 1}
  m_Children: []
  m_Father: {fileID: 0}
  m_RootOrder: 1
--- !u!1 &1500758058
GameObject:
  m_ObjectHideFlags: 0
  m_PrefabParentObject: {fileID: 100130, guid: 2ab0893f5bba9b243b65e309e78089d0, type: 3}
  m_PrefabInternal: {fileID: 587774303}
  serializedVersion: 4
  m_Component:
  - 4: {fileID: 1500758059}
  m_Layer: 0
  m_Name: RightHandThumb1
  m_TagString: Untagged
  m_Icon: {fileID: 0}
  m_NavMeshLayer: 0
  m_StaticEditorFlags: 0
  m_IsActive: 1
--- !u!4 &1500758059
Transform:
  m_ObjectHideFlags: 0
  m_PrefabParentObject: {fileID: 400130, guid: 2ab0893f5bba9b243b65e309e78089d0, type: 3}
  m_PrefabInternal: {fileID: 587774303}
  m_GameObject: {fileID: 1500758058}
  m_LocalRotation: {x: .000123995618, y: -.00563636655, z: .0219935421, w: .99974221}
  m_LocalPosition: {x: .0146849155, y: -.0111049423, z: .0258580949}
  m_LocalScale: {x: 1, y: 1, z: 1}
  m_Children:
  - {fileID: 458739645}
  m_Father: {fileID: 1741271325}
  m_RootOrder: 4
--- !u!1 &1510559727
GameObject:
  m_ObjectHideFlags: 0
  m_PrefabParentObject: {fileID: 100016, guid: 2ab0893f5bba9b243b65e309e78089d0, type: 3}
  m_PrefabInternal: {fileID: 587774303}
  serializedVersion: 4
  m_Component:
  - 4: {fileID: 1510559728}
  m_Layer: 0
  m_Name: LeftArm
  m_TagString: Untagged
  m_Icon: {fileID: 0}
  m_NavMeshLayer: 0
  m_StaticEditorFlags: 0
  m_IsActive: 1
--- !u!4 &1510559728
Transform:
  m_ObjectHideFlags: 0
  m_PrefabParentObject: {fileID: 400016, guid: 2ab0893f5bba9b243b65e309e78089d0, type: 3}
  m_PrefabInternal: {fileID: 587774303}
  m_GameObject: {fileID: 1510559727}
  m_LocalRotation: {x: .00946439244, y: .0436917022, z: -.223042458, w: .973783135}
  m_LocalPosition: {x: -.0835747719, y: .036097575, z: 2.88657976e-17}
  m_LocalScale: {x: 1, y: 1, z: 1}
  m_Children:
  - {fileID: 744116966}
  m_Father: {fileID: 2076437658}
  m_RootOrder: 0
--- !u!1 &1526258571
GameObject:
  m_ObjectHideFlags: 0
  m_PrefabParentObject: {fileID: 100114, guid: 2ab0893f5bba9b243b65e309e78089d0, type: 3}
  m_PrefabInternal: {fileID: 587774303}
  serializedVersion: 4
  m_Component:
  - 4: {fileID: 1526258572}
  m_Layer: 0
  m_Name: RightHandMiddle2
  m_TagString: Untagged
  m_Icon: {fileID: 0}
  m_NavMeshLayer: 0
  m_StaticEditorFlags: 0
  m_IsActive: 1
--- !u!4 &1526258572
Transform:
  m_ObjectHideFlags: 0
  m_PrefabParentObject: {fileID: 400114, guid: 2ab0893f5bba9b243b65e309e78089d0, type: 3}
  m_PrefabInternal: {fileID: 587774303}
  m_GameObject: {fileID: 1526258571}
  m_LocalRotation: {x: -.00145348674, y: -.0264088325, z: .0570813417, w: .998019159}
  m_LocalPosition: {x: .0438090637, y: .000194188149, z: .00645493623}
  m_LocalScale: {x: 1, y: 1, z: 1}
  m_Children:
  - {fileID: 354910446}
  m_Father: {fileID: 1299384097}
  m_RootOrder: 0
--- !u!1 &1541669972
GameObject:
  m_ObjectHideFlags: 0
  m_PrefabParentObject: {fileID: 100110, guid: 2ab0893f5bba9b243b65e309e78089d0, type: 3}
  m_PrefabInternal: {fileID: 587774303}
  serializedVersion: 4
  m_Component:
  - 4: {fileID: 1541669973}
  m_Layer: 0
  m_Name: RightHandIndex3
  m_TagString: Untagged
  m_Icon: {fileID: 0}
  m_NavMeshLayer: 0
  m_StaticEditorFlags: 0
  m_IsActive: 1
--- !u!4 &1541669973
Transform:
  m_ObjectHideFlags: 0
  m_PrefabParentObject: {fileID: 400110, guid: 2ab0893f5bba9b243b65e309e78089d0, type: 3}
  m_PrefabInternal: {fileID: 587774303}
  m_GameObject: {fileID: 1541669972}
  m_LocalRotation: {x: -3.46944695e-18, y: 1.40129846e-43, z: -3.46944695e-18, w: 1}
  m_LocalPosition: {x: .0252250377, y: -.00496646529, z: .0110121462}
  m_LocalScale: {x: 1, y: 1, z: 1}
  m_Children: []
  m_Father: {fileID: 1423159450}
  m_RootOrder: 0
--- !u!1 &1592215010
GameObject:
  m_ObjectHideFlags: 0
  m_PrefabParentObject: {fileID: 100036, guid: 2ab0893f5bba9b243b65e309e78089d0, type: 3}
  m_PrefabInternal: {fileID: 587774303}
  serializedVersion: 4
  m_Component:
  - 4: {fileID: 1592215011}
  m_Layer: 0
  m_Name: LeftHandIndex3
  m_TagString: Untagged
  m_Icon: {fileID: 0}
  m_NavMeshLayer: 0
  m_StaticEditorFlags: 0
  m_IsActive: 1
--- !u!4 &1592215011
Transform:
  m_ObjectHideFlags: 0
  m_PrefabParentObject: {fileID: 400036, guid: 2ab0893f5bba9b243b65e309e78089d0, type: 3}
  m_PrefabInternal: {fileID: 587774303}
  m_GameObject: {fileID: 1592215010}
  m_LocalRotation: {x: 0, y: 0, z: 0, w: 1}
  m_LocalPosition: {x: -.0279684775, y: -6.28122399e-09, z: -5.17186614e-08}
  m_LocalScale: {x: 1, y: 1, z: 1}
  m_Children: []
  m_Father: {fileID: 385157606}
  m_RootOrder: 0
--- !u!1 &1623197407
GameObject:
  m_ObjectHideFlags: 0
  m_PrefabParentObject: {fileID: 100062, guid: 2ab0893f5bba9b243b65e309e78089d0, type: 3}
  m_PrefabInternal: {fileID: 587774303}
  serializedVersion: 4
  m_Component:
  - 4: {fileID: 1623197408}
  m_Layer: 0
  m_Name: LeftInnerBrow
  m_TagString: Untagged
  m_Icon: {fileID: 0}
  m_NavMeshLayer: 0
  m_StaticEditorFlags: 0
  m_IsActive: 1
--- !u!4 &1623197408
Transform:
  m_ObjectHideFlags: 0
  m_PrefabParentObject: {fileID: 400062, guid: 2ab0893f5bba9b243b65e309e78089d0, type: 3}
  m_PrefabInternal: {fileID: 587774303}
  m_GameObject: {fileID: 1623197407}
  m_LocalRotation: {x: 0, y: 0, z: 0, w: 1}
  m_LocalPosition: {x: -.0120626912, y: .118765265, z: .0934668258}
  m_LocalScale: {x: 1, y: 1, z: 1}
  m_Children: []
  m_Father: {fileID: 1887843162}
  m_RootOrder: 5
--- !u!1 &1625540090
GameObject:
  m_ObjectHideFlags: 0
  m_PrefabParentObject: {fileID: 100140, guid: 2ab0893f5bba9b243b65e309e78089d0, type: 3}
  m_PrefabInternal: {fileID: 587774303}
  serializedVersion: 4
  m_Component:
  - 4: {fileID: 1625540091}
  m_Layer: 0
  m_Name: RightLeg
  m_TagString: Untagged
  m_Icon: {fileID: 0}
  m_NavMeshLayer: 0
  m_StaticEditorFlags: 0
  m_IsActive: 1
--- !u!4 &1625540091
Transform:
  m_ObjectHideFlags: 0
  m_PrefabParentObject: {fileID: 400140, guid: 2ab0893f5bba9b243b65e309e78089d0, type: 3}
  m_PrefabInternal: {fileID: 587774303}
  m_GameObject: {fileID: 1625540090}
  m_LocalRotation: {x: 0, y: 0, z: 0, w: 1}
  m_LocalPosition: {x: .0205504671, y: -.409130007, z: .00717136543}
  m_LocalScale: {x: 1, y: 1, z: 1}
  m_Children:
  - {fileID: 522869120}
  m_Father: {fileID: 1906499969}
  m_RootOrder: 0
--- !u!1 &1632662910
GameObject:
  m_ObjectHideFlags: 0
  m_PrefabParentObject: {fileID: 0}
  m_PrefabInternal: {fileID: 0}
  serializedVersion: 4
  m_Component:
  - 4: {fileID: 1632662911}
  m_Layer: 0
  m_Name: LHPistolWeight
  m_TagString: Untagged
  m_Icon: {fileID: 0}
  m_NavMeshLayer: 0
  m_StaticEditorFlags: 0
  m_IsActive: 1
--- !u!4 &1632662911
Transform:
  m_ObjectHideFlags: 0
  m_PrefabParentObject: {fileID: 0}
  m_PrefabInternal: {fileID: 0}
  m_GameObject: {fileID: 1632662910}
  m_LocalRotation: {x: 0, y: 0, z: 0, w: 1}
  m_LocalPosition: {x: .0496478118, y: -.0972313657, z: -.00240946794}
  m_LocalScale: {x: 1, y: 1, z: 1}
  m_Children: []
  m_Father: {fileID: 1741271325}
  m_RootOrder: 5
--- !u!1 &1671330500
GameObject:
  m_ObjectHideFlags: 0
  m_PrefabParentObject: {fileID: 100080, guid: 2ab0893f5bba9b243b65e309e78089d0, type: 3}
  m_PrefabInternal: {fileID: 587774303}
  serializedVersion: 4
  m_Component:
  - 4: {fileID: 1671330501}
  m_Layer: 0
  m_Name: LeftUpLeg
  m_TagString: Untagged
  m_Icon: {fileID: 0}
  m_NavMeshLayer: 0
  m_StaticEditorFlags: 0
  m_IsActive: 1
--- !u!4 &1671330501
Transform:
  m_ObjectHideFlags: 0
  m_PrefabParentObject: {fileID: 400080, guid: 2ab0893f5bba9b243b65e309e78089d0, type: 3}
  m_PrefabInternal: {fileID: 587774303}
  m_GameObject: {fileID: 1671330500}
  m_LocalRotation: {x: 0, y: 0, z: 0, w: 1}
  m_LocalPosition: {x: -.0754494965, y: -.0456640199, z: 0}
  m_LocalScale: {x: 1, y: 1, z: 1}
  m_Children:
  - {fileID: 1073348921}
  m_Father: {fileID: 129267891}
  m_RootOrder: 0
--- !u!1 &1712984522
GameObject:
  m_ObjectHideFlags: 0
  m_PrefabParentObject: {fileID: 100090, guid: 2ab0893f5bba9b243b65e309e78089d0, type: 3}
  m_PrefabInternal: {fileID: 587774303}
  serializedVersion: 4
  m_Component:
  - 4: {fileID: 1712984523}
  m_Layer: 0
  m_Name: RightArm
  m_TagString: Untagged
  m_Icon: {fileID: 0}
  m_NavMeshLayer: 0
  m_StaticEditorFlags: 0
  m_IsActive: 1
--- !u!4 &1712984523
Transform:
  m_ObjectHideFlags: 0
  m_PrefabParentObject: {fileID: 400090, guid: 2ab0893f5bba9b243b65e309e78089d0, type: 3}
  m_PrefabInternal: {fileID: 587774303}
  m_GameObject: {fileID: 1712984522}
  m_LocalRotation: {x: .21105206, y: .974394083, z: -.0173116997, w: .0755877346}
  m_LocalPosition: {x: -.0835755169, y: .0360957012, z: -5.15574072e-08}
  m_LocalScale: {x: 1, y: 1, z: 1}
  m_Children:
  - {fileID: 863801691}
  m_Father: {fileID: 817903206}
  m_RootOrder: 0
--- !u!1 &1730835382
GameObject:
  m_ObjectHideFlags: 0
  m_PrefabParentObject: {fileID: 100126, guid: 2ab0893f5bba9b243b65e309e78089d0, type: 3}
  m_PrefabInternal: {fileID: 587774303}
  serializedVersion: 4
  m_Component:
  - 4: {fileID: 1730835383}
  m_Layer: 0
  m_Name: RightHandRing2
  m_TagString: Untagged
  m_Icon: {fileID: 0}
  m_NavMeshLayer: 0
  m_StaticEditorFlags: 0
  m_IsActive: 1
--- !u!4 &1730835383
Transform:
  m_ObjectHideFlags: 0
  m_PrefabParentObject: {fileID: 400126, guid: 2ab0893f5bba9b243b65e309e78089d0, type: 3}
  m_PrefabInternal: {fileID: 587774303}
  m_GameObject: {fileID: 1730835382}
  m_LocalRotation: {x: -.00157919095, y: -.0221169833, z: .0554940253, w: .998212814}
  m_LocalPosition: {x: .0428871848, y: -.00137538207, z: -.00494585792}
  m_LocalScale: {x: 1, y: 1, z: 1}
  m_Children:
  - {fileID: 1321411655}
  m_Father: {fileID: 107592441}
  m_RootOrder: 0
--- !u!1 &1741271324
GameObject:
  m_ObjectHideFlags: 0
  m_PrefabParentObject: {fileID: 100104, guid: 2ab0893f5bba9b243b65e309e78089d0, type: 3}
  m_PrefabInternal: {fileID: 587774303}
  serializedVersion: 4
  m_Component:
  - 4: {fileID: 1741271325}
  m_Layer: 0
  m_Name: RightHand
  m_TagString: Untagged
  m_Icon: {fileID: 0}
  m_NavMeshLayer: 0
  m_StaticEditorFlags: 0
  m_IsActive: 1
--- !u!4 &1741271325
Transform:
  m_ObjectHideFlags: 0
  m_PrefabParentObject: {fileID: 400104, guid: 2ab0893f5bba9b243b65e309e78089d0, type: 3}
  m_PrefabInternal: {fileID: 587774303}
  m_GameObject: {fileID: 1741271324}
  m_LocalRotation: {x: 0, y: 0, z: .0214136913, w: .999770701}
  m_LocalPosition: {x: .245373696, y: .0216417722, z: .00555046508}
  m_LocalScale: {x: 1, y: 1, z: 1}
  m_Children:
  - {fileID: 1478412045}
  - {fileID: 1299384097}
  - {fileID: 516177467}
  - {fileID: 107592441}
  - {fileID: 1500758059}
  - {fileID: 1632662911}
  m_Father: {fileID: 863801691}
  m_RootOrder: 0
--- !u!1 &1746087024
GameObject:
  m_ObjectHideFlags: 0
  m_PrefabParentObject: {fileID: 100086, guid: 2ab0893f5bba9b243b65e309e78089d0, type: 3}
  m_PrefabInternal: {fileID: 587774303}
  serializedVersion: 4
  m_Component:
  - 4: {fileID: 1746087025}
  m_Layer: 0
  m_Name: Reference
  m_TagString: Untagged
  m_Icon: {fileID: 0}
  m_NavMeshLayer: 0
  m_StaticEditorFlags: 0
  m_IsActive: 1
--- !u!4 &1746087025
Transform:
  m_ObjectHideFlags: 0
  m_PrefabParentObject: {fileID: 400086, guid: 2ab0893f5bba9b243b65e309e78089d0, type: 3}
  m_PrefabInternal: {fileID: 587774303}
  m_GameObject: {fileID: 1746087024}
  m_LocalRotation: {x: 0, y: 0, z: 0, w: 1}
  m_LocalPosition: {x: 0, y: 0, z: 0}
  m_LocalScale: {x: 1, y: 1, z: 1}
  m_Children:
  - {fileID: 129267891}
  m_Father: {fileID: 1411765133}
  m_RootOrder: 1
--- !u!1 &1766012254
GameObject:
  m_ObjectHideFlags: 0
  m_PrefabParentObject: {fileID: 100026, guid: 2ab0893f5bba9b243b65e309e78089d0, type: 3}
  m_PrefabInternal: {fileID: 587774303}
  serializedVersion: 4
  m_Component:
  - 4: {fileID: 1766012255}
  m_Layer: 0
  m_Name: LeftFoot
  m_TagString: Untagged
  m_Icon: {fileID: 0}
  m_NavMeshLayer: 0
  m_StaticEditorFlags: 0
  m_IsActive: 1
--- !u!4 &1766012255
Transform:
  m_ObjectHideFlags: 0
  m_PrefabParentObject: {fileID: 400026, guid: 2ab0893f5bba9b243b65e309e78089d0, type: 3}
  m_PrefabInternal: {fileID: 587774303}
  m_GameObject: {fileID: 1766012254}
  m_LocalRotation: {x: 0, y: 0, z: 0, w: 1}
  m_LocalPosition: {x: -.00515299942, y: -.423155904, z: -.0120320888}
  m_LocalScale: {x: 1, y: 1, z: 1}
  m_Children:
  - {fileID: 51004867}
  m_Father: {fileID: 1073348921}
  m_RootOrder: 0
--- !u!1 &1808476629
GameObject:
  m_ObjectHideFlags: 0
  m_PrefabParentObject: {fileID: 100058, guid: 2ab0893f5bba9b243b65e309e78089d0, type: 3}
  m_PrefabInternal: {fileID: 587774303}
  serializedVersion: 4
  m_Component:
  - 4: {fileID: 1808476630}
  m_Layer: 0
  m_Name: LeftHandThumb2
  m_TagString: Untagged
  m_Icon: {fileID: 0}
  m_NavMeshLayer: 0
  m_StaticEditorFlags: 0
  m_IsActive: 1
--- !u!4 &1808476630
Transform:
  m_ObjectHideFlags: 0
  m_PrefabParentObject: {fileID: 400058, guid: 2ab0893f5bba9b243b65e309e78089d0, type: 3}
  m_PrefabInternal: {fileID: 587774303}
  m_GameObject: {fileID: 1808476629}
  m_LocalRotation: {x: 0, y: 0, z: 0, w: 1}
  m_LocalPosition: {x: -.0163739994, y: -.00528999977, z: .0234914087}
  m_LocalScale: {x: 1, y: 1, z: 1}
  m_Children:
  - {fileID: 1382217653}
  m_Father: {fileID: 1965283734}
  m_RootOrder: 0
--- !u!1 &1813436250
GameObject:
  m_ObjectHideFlags: 0
  m_PrefabParentObject: {fileID: 100054, guid: 2ab0893f5bba9b243b65e309e78089d0, type: 3}
  m_PrefabInternal: {fileID: 587774303}
  serializedVersion: 4
  m_Component:
  - 4: {fileID: 1813436251}
  m_Layer: 0
  m_Name: LeftHandRing3
  m_TagString: Untagged
  m_Icon: {fileID: 0}
  m_NavMeshLayer: 0
  m_StaticEditorFlags: 0
  m_IsActive: 1
--- !u!4 &1813436251
Transform:
  m_ObjectHideFlags: 0
  m_PrefabParentObject: {fileID: 400054, guid: 2ab0893f5bba9b243b65e309e78089d0, type: 3}
  m_PrefabInternal: {fileID: 587774303}
  m_GameObject: {fileID: 1813436250}
  m_LocalRotation: {x: 0, y: 0, z: 0, w: 1}
  m_LocalPosition: {x: -.0308355652, y: 7.71049682e-11, z: -1.64932707e-08}
  m_LocalScale: {x: 1, y: 1, z: 1}
  m_Children: []
  m_Father: {fileID: 239416497}
  m_RootOrder: 0
--- !u!1 &1830709056
GameObject:
  m_ObjectHideFlags: 0
  m_PrefabParentObject: {fileID: 100146, guid: 2ab0893f5bba9b243b65e309e78089d0, type: 3}
  m_PrefabInternal: {fileID: 587774303}
  serializedVersion: 4
  m_Component:
  - 4: {fileID: 1830709057}
  m_Layer: 0
  m_Name: RightLipUpper
  m_TagString: Untagged
  m_Icon: {fileID: 0}
  m_NavMeshLayer: 0
  m_StaticEditorFlags: 0
  m_IsActive: 1
--- !u!4 &1830709057
Transform:
  m_ObjectHideFlags: 0
  m_PrefabParentObject: {fileID: 400146, guid: 2ab0893f5bba9b243b65e309e78089d0, type: 3}
  m_PrefabInternal: {fileID: 587774303}
  m_GameObject: {fileID: 1830709056}
  m_LocalRotation: {x: 0, y: 0, z: 0, w: 1}
  m_LocalPosition: {x: .0145013221, y: -.00510717137, z: .094617404}
  m_LocalScale: {x: 1, y: 1, z: 1}
  m_Children: []
  m_Father: {fileID: 1887843162}
  m_RootOrder: 15
--- !u!1 &1857842798
GameObject:
  m_ObjectHideFlags: 0
  m_PrefabParentObject: {fileID: 100136, guid: 2ab0893f5bba9b243b65e309e78089d0, type: 3}
  m_PrefabInternal: {fileID: 587774303}
  serializedVersion: 4
  m_Component:
  - 4: {fileID: 1857842799}
  m_Layer: 0
  m_Name: RightInnerBrow
  m_TagString: Untagged
  m_Icon: {fileID: 0}
  m_NavMeshLayer: 0
  m_StaticEditorFlags: 0
  m_IsActive: 1
--- !u!4 &1857842799
Transform:
  m_ObjectHideFlags: 0
  m_PrefabParentObject: {fileID: 400136, guid: 2ab0893f5bba9b243b65e309e78089d0, type: 3}
  m_PrefabInternal: {fileID: 587774303}
  m_GameObject: {fileID: 1857842798}
  m_LocalRotation: {x: 0, y: 0, z: 0, w: 1}
  m_LocalPosition: {x: .0120626874, y: .118765265, z: .0934668258}
  m_LocalScale: {x: 1, y: 1, z: 1}
  m_Children: []
  m_Father: {fileID: 1887843162}
  m_RootOrder: 13
--- !u!1 &1887843161
GameObject:
  m_ObjectHideFlags: 0
  m_PrefabParentObject: {fileID: 100006, guid: 2ab0893f5bba9b243b65e309e78089d0, type: 3}
  m_PrefabInternal: {fileID: 587774303}
  serializedVersion: 4
  m_Component:
  - 4: {fileID: 1887843162}
  m_Layer: 0
  m_Name: Head
  m_TagString: Untagged
  m_Icon: {fileID: 0}
  m_NavMeshLayer: 0
  m_StaticEditorFlags: 0
  m_IsActive: 1
--- !u!4 &1887843162
Transform:
  m_ObjectHideFlags: 0
  m_PrefabParentObject: {fileID: 400006, guid: 2ab0893f5bba9b243b65e309e78089d0, type: 3}
  m_PrefabInternal: {fileID: 587774303}
  m_GameObject: {fileID: 1887843161}
  m_LocalRotation: {x: 0, y: 0, z: 0, w: 1}
  m_LocalPosition: {x: -0, y: .106355801, z: .0113267815}
  m_LocalScale: {x: 1, y: 1, z: 1}
  m_Children:
  - {fileID: 753026299}
  - {fileID: 195787590}
  - {fileID: 2096083065}
  - {fileID: 1953445780}
  - {fileID: 511612876}
  - {fileID: 1623197408}
  - {fileID: 1029943650}
  - {fileID: 684739213}
  - {fileID: 327636016}
  - {fileID: 325846140}
  - {fileID: 1061272566}
  - {fileID: 1163625089}
  - {fileID: 288424768}
  - {fileID: 1857842799}
  - {fileID: 682127009}
  - {fileID: 1830709057}
  - {fileID: 483601764}
  m_Father: {fileID: 315447354}
  m_RootOrder: 0
--- !u!1 &1906499968
GameObject:
  m_ObjectHideFlags: 0
  m_PrefabParentObject: {fileID: 100154, guid: 2ab0893f5bba9b243b65e309e78089d0, type: 3}
  m_PrefabInternal: {fileID: 587774303}
  serializedVersion: 4
  m_Component:
  - 4: {fileID: 1906499969}
  m_Layer: 0
  m_Name: RightUpLeg
  m_TagString: Untagged
  m_Icon: {fileID: 0}
  m_NavMeshLayer: 0
  m_StaticEditorFlags: 0
  m_IsActive: 1
--- !u!4 &1906499969
Transform:
  m_ObjectHideFlags: 0
  m_PrefabParentObject: {fileID: 400154, guid: 2ab0893f5bba9b243b65e309e78089d0, type: 3}
  m_PrefabInternal: {fileID: 587774303}
  m_GameObject: {fileID: 1906499968}
  m_LocalRotation: {x: 0, y: 0, z: 0, w: 1}
  m_LocalPosition: {x: .0754495338, y: -.0456639901, z: 0}
  m_LocalScale: {x: 1, y: 1, z: 1}
  m_Children:
  - {fileID: 1625540091}
  m_Father: {fileID: 129267891}
  m_RootOrder: 1
--- !u!1 &1953445779
GameObject:
  m_ObjectHideFlags: 0
  m_PrefabParentObject: {fileID: 100022, guid: 2ab0893f5bba9b243b65e309e78089d0, type: 3}
  m_PrefabInternal: {fileID: 587774303}
  serializedVersion: 4
  m_Component:
  - 4: {fileID: 1953445780}
  m_Layer: 0
  m_Name: LeftEyelidLower
  m_TagString: Untagged
  m_Icon: {fileID: 0}
  m_NavMeshLayer: 0
  m_StaticEditorFlags: 0
  m_IsActive: 1
--- !u!4 &1953445780
Transform:
  m_ObjectHideFlags: 0
  m_PrefabParentObject: {fileID: 400022, guid: 2ab0893f5bba9b243b65e309e78089d0, type: 3}
  m_PrefabInternal: {fileID: 587774303}
  m_GameObject: {fileID: 1953445779}
  m_LocalRotation: {x: -.0348994955, y: 0, z: -0, w: .999390841}
  m_LocalPosition: {x: -.0356189571, y: .0650736615, z: .076234743}
  m_LocalScale: {x: 1, y: 1, z: 1}
  m_Children: []
  m_Father: {fileID: 1887843162}
  m_RootOrder: 3
--- !u!1 &1965283733
GameObject:
  m_ObjectHideFlags: 0
  m_PrefabParentObject: {fileID: 100056, guid: 2ab0893f5bba9b243b65e309e78089d0, type: 3}
  m_PrefabInternal: {fileID: 587774303}
  serializedVersion: 4
  m_Component:
  - 4: {fileID: 1965283734}
  m_Layer: 0
  m_Name: LeftHandThumb1
  m_TagString: Untagged
  m_Icon: {fileID: 0}
  m_NavMeshLayer: 0
  m_StaticEditorFlags: 0
  m_IsActive: 1
--- !u!4 &1965283734
Transform:
  m_ObjectHideFlags: 0
  m_PrefabParentObject: {fileID: 400056, guid: 2ab0893f5bba9b243b65e309e78089d0, type: 3}
  m_PrefabInternal: {fileID: 587774303}
  m_GameObject: {fileID: 1965283733}
  m_LocalRotation: {x: .000123995618, y: -.00563636655, z: .0219935421, w: .99974221}
  m_LocalPosition: {x: -.0142312413, y: -.0123778246, z: .0255316682}
  m_LocalScale: {x: 1, y: 1, z: 1}
  m_Children:
  - {fileID: 1808476630}
  m_Father: {fileID: 2101262864}
  m_RootOrder: 4
--- !u!1 &1970445868
GameObject:
  m_ObjectHideFlags: 0
  m_PrefabParentObject: {fileID: 0}
  m_PrefabInternal: {fileID: 0}
  serializedVersion: 4
  m_Component:
  - 4: {fileID: 1970445872}
  - 33: {fileID: 1970445871}
  - 64: {fileID: 1970445870}
  - 23: {fileID: 1970445869}
  m_Layer: 0
  m_Name: Plane
  m_TagString: Untagged
  m_Icon: {fileID: 0}
  m_NavMeshLayer: 0
  m_StaticEditorFlags: 0
  m_IsActive: 1
--- !u!23 &1970445869
MeshRenderer:
  m_ObjectHideFlags: 0
  m_PrefabParentObject: {fileID: 0}
  m_PrefabInternal: {fileID: 0}
  m_GameObject: {fileID: 1970445868}
  m_Enabled: 1
  m_CastShadows: 1
  m_ReceiveShadows: 1
  m_Materials:
  - {fileID: 2100000, guid: 1cfdd179700e99e4da8d2d72bc83d359, type: 2}
  m_SubsetIndices: 
  m_StaticBatchRoot: {fileID: 0}
  m_UseLightProbes: 0
  m_ReflectionProbeUsage: 1
  m_ProbeAnchor: {fileID: 0}
  m_ScaleInLightmap: 1
  m_PreserveUVs: 0
  m_ImportantGI: 0
  m_AutoUVMaxDistance: .5
  m_AutoUVMaxAngle: 89
  m_LightmapParameters: {fileID: 0}
  m_SortingLayerID: 0
  m_SortingOrder: 0
--- !u!64 &1970445870
MeshCollider:
  m_ObjectHideFlags: 0
  m_PrefabParentObject: {fileID: 0}
  m_PrefabInternal: {fileID: 0}
  m_GameObject: {fileID: 1970445868}
  m_Material: {fileID: 0}
  m_IsTrigger: 0
  m_Enabled: 1
  serializedVersion: 2
  m_Convex: 0
  m_Mesh: {fileID: 10209, guid: 0000000000000000e000000000000000, type: 0}
--- !u!33 &1970445871
MeshFilter:
  m_ObjectHideFlags: 0
  m_PrefabParentObject: {fileID: 0}
  m_PrefabInternal: {fileID: 0}
  m_GameObject: {fileID: 1970445868}
  m_Mesh: {fileID: 10209, guid: 0000000000000000e000000000000000, type: 0}
--- !u!4 &1970445872
Transform:
  m_ObjectHideFlags: 0
  m_PrefabParentObject: {fileID: 0}
  m_PrefabInternal: {fileID: 0}
  m_GameObject: {fileID: 1970445868}
  m_LocalRotation: {x: 0, y: 0, z: 0, w: 1}
  m_LocalPosition: {x: 1.22445047, y: 3.10508823, z: 2.08959389}
  m_LocalScale: {x: 3.30821419, y: 3.30821419, z: 3.30821419}
  m_Children: []
  m_Father: {fileID: 0}
  m_RootOrder: 3
--- !u!1 &2009937815
GameObject:
  m_ObjectHideFlags: 0
  m_PrefabParentObject: {fileID: 100088, guid: 2ab0893f5bba9b243b65e309e78089d0, type: 3}
  m_PrefabInternal: {fileID: 587774303}
  serializedVersion: 4
  m_Component:
  - 4: {fileID: 2009937816}
  - 33: {fileID: 2009937818}
  - 23: {fileID: 2009937817}
  m_Layer: 0
  m_Name: Ri_Eye_Mesh
  m_TagString: Untagged
  m_Icon: {fileID: 0}
  m_NavMeshLayer: 0
  m_StaticEditorFlags: 0
  m_IsActive: 1
--- !u!4 &2009937816
Transform:
  m_ObjectHideFlags: 0
  m_PrefabParentObject: {fileID: 400088, guid: 2ab0893f5bba9b243b65e309e78089d0, type: 3}
  m_PrefabInternal: {fileID: 587774303}
  m_GameObject: {fileID: 2009937815}
  m_LocalRotation: {x: 0, y: 0, z: 0, w: 1}
  m_LocalPosition: {x: .00166187854, y: .000383453356, z: .00531667331}
  m_LocalScale: {x: 1, y: 1, z: 1}
  m_Children: []
  m_Father: {fileID: 1061272566}
  m_RootOrder: 0
--- !u!23 &2009937817
MeshRenderer:
  m_ObjectHideFlags: 0
  m_PrefabParentObject: {fileID: 2300002, guid: 2ab0893f5bba9b243b65e309e78089d0,
    type: 3}
  m_PrefabInternal: {fileID: 587774303}
  m_GameObject: {fileID: 2009937815}
  m_Enabled: 1
  m_CastShadows: 1
  m_ReceiveShadows: 1
  m_Materials:
  - {fileID: 2100000, guid: e4a12fd3405832f448a43cdddb4a4e87, type: 2}
  m_SubsetIndices: 
  m_StaticBatchRoot: {fileID: 0}
  m_UseLightProbes: 1
  m_ReflectionProbeUsage: 1
  m_ProbeAnchor: {fileID: 0}
  m_ScaleInLightmap: 1
  m_PreserveUVs: 0
  m_ImportantGI: 0
  m_AutoUVMaxDistance: .5
  m_AutoUVMaxAngle: 89
  m_LightmapParameters: {fileID: 0}
  m_SortingLayerID: 0
  m_SortingOrder: 0
--- !u!33 &2009937818
MeshFilter:
  m_ObjectHideFlags: 0
  m_PrefabParentObject: {fileID: 3300002, guid: 2ab0893f5bba9b243b65e309e78089d0,
    type: 3}
  m_PrefabInternal: {fileID: 587774303}
  m_GameObject: {fileID: 2009937815}
  m_Mesh: {fileID: 4300002, guid: 2ab0893f5bba9b243b65e309e78089d0, type: 3}
--- !u!1 &2013877175
GameObject:
  m_ObjectHideFlags: 0
  m_PrefabParentObject: {fileID: 100042, guid: 2ab0893f5bba9b243b65e309e78089d0, type: 3}
  m_PrefabInternal: {fileID: 587774303}
  serializedVersion: 4
  m_Component:
  - 4: {fileID: 2013877176}
  m_Layer: 0
  m_Name: LeftHandMiddle3
  m_TagString: Untagged
  m_Icon: {fileID: 0}
  m_NavMeshLayer: 0
  m_StaticEditorFlags: 0
  m_IsActive: 1
--- !u!4 &2013877176
Transform:
  m_ObjectHideFlags: 0
  m_PrefabParentObject: {fileID: 400042, guid: 2ab0893f5bba9b243b65e309e78089d0, type: 3}
  m_PrefabInternal: {fileID: 587774303}
  m_GameObject: {fileID: 2013877175}
  m_LocalRotation: {x: 0, y: 0, z: 0, w: 1}
  m_LocalPosition: {x: -.0339648277, y: -1.21979289e-08, z: 3.75648268e-09}
  m_LocalScale: {x: 1, y: 1, z: 1}
  m_Children: []
  m_Father: {fileID: 743527842}
  m_RootOrder: 0
--- !u!1 &2076437657
GameObject:
  m_ObjectHideFlags: 0
  m_PrefabParentObject: {fileID: 100076, guid: 2ab0893f5bba9b243b65e309e78089d0, type: 3}
  m_PrefabInternal: {fileID: 587774303}
  serializedVersion: 4
  m_Component:
  - 4: {fileID: 2076437658}
  m_Layer: 0
  m_Name: LeftShoulder
  m_TagString: Untagged
  m_Icon: {fileID: 0}
  m_NavMeshLayer: 0
  m_StaticEditorFlags: 0
  m_IsActive: 1
--- !u!4 &2076437658
Transform:
  m_ObjectHideFlags: 0
  m_PrefabParentObject: {fileID: 400076, guid: 2ab0893f5bba9b243b65e309e78089d0, type: 3}
  m_PrefabInternal: {fileID: 587774303}
  m_GameObject: {fileID: 2076437657}
  m_LocalRotation: {x: -.0140067115, y: -.0595068261, z: .228689924, w: .971577942}
  m_LocalPosition: {x: -.0382435061, y: .192178085, z: -.017063085}
  m_LocalScale: {x: 1, y: 1, z: 1}
  m_Children:
  - {fileID: 1510559728}
  m_Father: {fileID: 1424801227}
  m_RootOrder: 0
--- !u!1 &2089358803
GameObject:
  m_ObjectHideFlags: 0
  m_PrefabParentObject: {fileID: 100082, guid: 2ab0893f5bba9b243b65e309e78089d0, type: 3}
  m_PrefabInternal: {fileID: 587774303}
  serializedVersion: 4
  m_Component:
  - 4: {fileID: 2089358804}
  - 137: {fileID: 2089358805}
  m_Layer: 0
  m_Name: Lw_Teeth_Mesh
  m_TagString: Untagged
  m_Icon: {fileID: 0}
  m_NavMeshLayer: 0
  m_StaticEditorFlags: 0
  m_IsActive: 1
--- !u!4 &2089358804
Transform:
  m_ObjectHideFlags: 0
  m_PrefabParentObject: {fileID: 400082, guid: 2ab0893f5bba9b243b65e309e78089d0, type: 3}
  m_PrefabInternal: {fileID: 587774303}
  m_GameObject: {fileID: 2089358803}
  m_LocalRotation: {x: 0, y: 0, z: 0, w: 1}
  m_LocalPosition: {x: 0, y: 0, z: 0}
  m_LocalScale: {x: 1, y: 1, z: 1}
  m_Children: []
  m_Father: {fileID: 1367915533}
  m_RootOrder: 0
--- !u!137 &2089358805
SkinnedMeshRenderer:
  m_ObjectHideFlags: 0
  m_PrefabParentObject: {fileID: 13700000, guid: 2ab0893f5bba9b243b65e309e78089d0,
    type: 3}
  m_PrefabInternal: {fileID: 587774303}
  m_GameObject: {fileID: 2089358803}
  m_Enabled: 1
  m_CastShadows: 1
  m_ReceiveShadows: 1
  m_Materials:
  - {fileID: 2100000, guid: e4a12fd3405832f448a43cdddb4a4e87, type: 2}
  m_SubsetIndices: 
  m_StaticBatchRoot: {fileID: 0}
  m_UseLightProbes: 1
  m_ReflectionProbeUsage: 1
  m_ProbeAnchor: {fileID: 0}
  m_ScaleInLightmap: 1
  m_PreserveUVs: 0
  m_ImportantGI: 0
  m_AutoUVMaxDistance: .5
  m_AutoUVMaxAngle: 89
  m_LightmapParameters: {fileID: 0}
  m_SortingLayerID: 0
  m_SortingOrder: 0
  serializedVersion: 2
  m_Quality: 0
  m_UpdateWhenOffscreen: 0
  m_Mesh: {fileID: 4300008, guid: 2ab0893f5bba9b243b65e309e78089d0, type: 3}
  m_Bones:
  - {fileID: 753026299}
  m_BlendShapeWeights: []
  m_RootBone: {fileID: 753026299}
  m_AABB:
    m_Center: {x: 0, y: -.0278462768, z: .0504983477}
    m_Extent: {x: .0358250998, y: .00827437639, z: .0246418603}
  m_DirtyAABB: 0
--- !u!1 &2096083064
GameObject:
  m_ObjectHideFlags: 0
  m_PrefabParentObject: {fileID: 100020, guid: 2ab0893f5bba9b243b65e309e78089d0, type: 3}
  m_PrefabInternal: {fileID: 587774303}
  serializedVersion: 4
  m_Component:
  - 4: {fileID: 2096083065}
  m_Layer: 0
  m_Name: LeftEye
  m_TagString: Untagged
  m_Icon: {fileID: 0}
  m_NavMeshLayer: 0
  m_StaticEditorFlags: 0
  m_IsActive: 1
--- !u!4 &2096083065
Transform:
  m_ObjectHideFlags: 0
  m_PrefabParentObject: {fileID: 400020, guid: 2ab0893f5bba9b243b65e309e78089d0, type: 3}
  m_PrefabInternal: {fileID: 587774303}
  m_GameObject: {fileID: 2096083064}
  m_LocalRotation: {x: 0, y: 0, z: 0, w: 1}
  m_LocalPosition: {x: -.0208482333, y: .0825027004, z: .0554274321}
  m_LocalScale: {x: 1, y: 1, z: 1}
  m_Children:
  - {fileID: 272666203}
  m_Father: {fileID: 1887843162}
  m_RootOrder: 2
--- !u!1 &2101262863
GameObject:
  m_ObjectHideFlags: 0
  m_PrefabParentObject: {fileID: 100030, guid: 2ab0893f5bba9b243b65e309e78089d0, type: 3}
  m_PrefabInternal: {fileID: 587774303}
  serializedVersion: 4
  m_Component:
  - 4: {fileID: 2101262864}
  m_Layer: 0
  m_Name: LeftHand
  m_TagString: Untagged
  m_Icon: {fileID: 0}
  m_NavMeshLayer: 0
  m_StaticEditorFlags: 0
  m_IsActive: 1
--- !u!4 &2101262864
Transform:
  m_ObjectHideFlags: 0
  m_PrefabParentObject: {fileID: 400030, guid: 2ab0893f5bba9b243b65e309e78089d0, type: 3}
  m_PrefabInternal: {fileID: 587774303}
  m_GameObject: {fileID: 2101262863}
  m_LocalRotation: {x: 0, y: 0, z: -.0214135535, w: .999770701}
  m_LocalPosition: {x: -.24638927, y: 0, z: 0}
  m_LocalScale: {x: 1, y: 1, z: 1}
  m_Children:
  - {fileID: 571261090}
  - {fileID: 480575303}
  - {fileID: 1451271956}
  - {fileID: 125677792}
  - {fileID: 1965283734}
  m_Father: {fileID: 744116966}
  m_RootOrder: 0
